(kicad_sch (version 20211123) (generator eeschema)

  (uuid e63e39d7-6ac0-4ffd-8aa3-1841a4541b55)

  (paper "A4")

  (lib_symbols
    (symbol "Connector:Conn_01x01_Male" (pin_names (offset 1.016) hide) (in_bom yes) (on_board yes)
      (property "Reference" "J" (id 0) (at 0 2.54 0)
        (effects (font (size 1.27 1.27)))
      )
      (property "Value" "Conn_01x01_Male" (id 1) (at 0 -2.54 0)
        (effects (font (size 1.27 1.27)))
      )
      (property "Footprint" "" (id 2) (at 0 0 0)
        (effects (font (size 1.27 1.27)) hide)
      )
      (property "Datasheet" "~" (id 3) (at 0 0 0)
        (effects (font (size 1.27 1.27)) hide)
      )
      (property "ki_keywords" "connector" (id 4) (at 0 0 0)
        (effects (font (size 1.27 1.27)) hide)
      )
      (property "ki_description" "Generic connector, single row, 01x01, script generated (kicad-library-utils/schlib/autogen/connector/)" (id 5) (at 0 0 0)
        (effects (font (size 1.27 1.27)) hide)
      )
      (property "ki_fp_filters" "Connector*:*" (id 6) (at 0 0 0)
        (effects (font (size 1.27 1.27)) hide)
      )
      (symbol "Conn_01x01_Male_1_1"
        (polyline
          (pts
            (xy 1.27 0)
            (xy 0.8636 0)
          )
          (stroke (width 0.1524) (type default) (color 0 0 0 0))
          (fill (type none))
        )
        (rectangle (start 0.8636 0.127) (end 0 -0.127)
          (stroke (width 0.1524) (type default) (color 0 0 0 0))
          (fill (type outline))
        )
        (pin passive line (at 5.08 0 180) (length 3.81)
          (name "Pin_1" (effects (font (size 1.27 1.27))))
          (number "1" (effects (font (size 1.27 1.27))))
        )
      )
    )
    (symbol "Connector:Conn_01x04_Male" (pin_names (offset 1.016) hide) (in_bom yes) (on_board yes)
      (property "Reference" "J" (id 0) (at 0 5.08 0)
        (effects (font (size 1.27 1.27)))
      )
      (property "Value" "Conn_01x04_Male" (id 1) (at 0 -7.62 0)
        (effects (font (size 1.27 1.27)))
      )
      (property "Footprint" "" (id 2) (at 0 0 0)
        (effects (font (size 1.27 1.27)) hide)
      )
      (property "Datasheet" "~" (id 3) (at 0 0 0)
        (effects (font (size 1.27 1.27)) hide)
      )
      (property "ki_keywords" "connector" (id 4) (at 0 0 0)
        (effects (font (size 1.27 1.27)) hide)
      )
      (property "ki_description" "Generic connector, single row, 01x04, script generated (kicad-library-utils/schlib/autogen/connector/)" (id 5) (at 0 0 0)
        (effects (font (size 1.27 1.27)) hide)
      )
      (property "ki_fp_filters" "Connector*:*_1x??_*" (id 6) (at 0 0 0)
        (effects (font (size 1.27 1.27)) hide)
      )
      (symbol "Conn_01x04_Male_1_1"
        (polyline
          (pts
            (xy 1.27 -5.08)
            (xy 0.8636 -5.08)
          )
          (stroke (width 0.1524) (type default) (color 0 0 0 0))
          (fill (type none))
        )
        (polyline
          (pts
            (xy 1.27 -2.54)
            (xy 0.8636 -2.54)
          )
          (stroke (width 0.1524) (type default) (color 0 0 0 0))
          (fill (type none))
        )
        (polyline
          (pts
            (xy 1.27 0)
            (xy 0.8636 0)
          )
          (stroke (width 0.1524) (type default) (color 0 0 0 0))
          (fill (type none))
        )
        (polyline
          (pts
            (xy 1.27 2.54)
            (xy 0.8636 2.54)
          )
          (stroke (width 0.1524) (type default) (color 0 0 0 0))
          (fill (type none))
        )
        (rectangle (start 0.8636 -4.953) (end 0 -5.207)
          (stroke (width 0.1524) (type default) (color 0 0 0 0))
          (fill (type outline))
        )
        (rectangle (start 0.8636 -2.413) (end 0 -2.667)
          (stroke (width 0.1524) (type default) (color 0 0 0 0))
          (fill (type outline))
        )
        (rectangle (start 0.8636 0.127) (end 0 -0.127)
          (stroke (width 0.1524) (type default) (color 0 0 0 0))
          (fill (type outline))
        )
        (rectangle (start 0.8636 2.667) (end 0 2.413)
          (stroke (width 0.1524) (type default) (color 0 0 0 0))
          (fill (type outline))
        )
        (pin passive line (at 5.08 2.54 180) (length 3.81)
          (name "Pin_1" (effects (font (size 1.27 1.27))))
          (number "1" (effects (font (size 1.27 1.27))))
        )
        (pin passive line (at 5.08 0 180) (length 3.81)
          (name "Pin_2" (effects (font (size 1.27 1.27))))
          (number "2" (effects (font (size 1.27 1.27))))
        )
        (pin passive line (at 5.08 -2.54 180) (length 3.81)
          (name "Pin_3" (effects (font (size 1.27 1.27))))
          (number "3" (effects (font (size 1.27 1.27))))
        )
        (pin passive line (at 5.08 -5.08 180) (length 3.81)
          (name "Pin_4" (effects (font (size 1.27 1.27))))
          (number "4" (effects (font (size 1.27 1.27))))
        )
      )
    )
    (symbol "Device:R" (pin_numbers hide) (pin_names (offset 0)) (in_bom yes) (on_board yes)
      (property "Reference" "R" (id 0) (at 2.032 0 90)
        (effects (font (size 1.27 1.27)))
      )
      (property "Value" "R" (id 1) (at 0 0 90)
        (effects (font (size 1.27 1.27)))
      )
      (property "Footprint" "" (id 2) (at -1.778 0 90)
        (effects (font (size 1.27 1.27)) hide)
      )
      (property "Datasheet" "~" (id 3) (at 0 0 0)
        (effects (font (size 1.27 1.27)) hide)
      )
      (property "ki_keywords" "R res resistor" (id 4) (at 0 0 0)
        (effects (font (size 1.27 1.27)) hide)
      )
      (property "ki_description" "Resistor" (id 5) (at 0 0 0)
        (effects (font (size 1.27 1.27)) hide)
      )
      (property "ki_fp_filters" "R_*" (id 6) (at 0 0 0)
        (effects (font (size 1.27 1.27)) hide)
      )
      (symbol "R_0_1"
        (rectangle (start -1.016 -2.54) (end 1.016 2.54)
          (stroke (width 0.254) (type default) (color 0 0 0 0))
          (fill (type none))
        )
      )
      (symbol "R_1_1"
        (pin passive line (at 0 3.81 270) (length 1.27)
          (name "~" (effects (font (size 1.27 1.27))))
          (number "1" (effects (font (size 1.27 1.27))))
        )
        (pin passive line (at 0 -3.81 90) (length 1.27)
          (name "~" (effects (font (size 1.27 1.27))))
          (number "2" (effects (font (size 1.27 1.27))))
        )
      )
    )
    (symbol "Switch:SW_Push_Dual" (pin_names (offset 1.016) hide) (in_bom yes) (on_board yes)
      (property "Reference" "SW" (id 0) (at 1.27 2.54 0)
        (effects (font (size 1.27 1.27)) (justify left))
      )
      (property "Value" "SW_Push_Dual" (id 1) (at 0 -6.858 0)
        (effects (font (size 1.27 1.27)))
      )
      (property "Footprint" "" (id 2) (at 0 5.08 0)
        (effects (font (size 1.27 1.27)) hide)
      )
      (property "Datasheet" "~" (id 3) (at 0 5.08 0)
        (effects (font (size 1.27 1.27)) hide)
      )
      (property "ki_keywords" "switch normally-open pushbutton push-button" (id 4) (at 0 0 0)
        (effects (font (size 1.27 1.27)) hide)
      )
      (property "ki_description" "Push button switch, generic, symbol, four pins" (id 5) (at 0 0 0)
        (effects (font (size 1.27 1.27)) hide)
      )
      (symbol "SW_Push_Dual_0_1"
        (circle (center -2.032 -5.08) (radius 0.508)
          (stroke (width 0) (type default) (color 0 0 0 0))
          (fill (type none))
        )
        (circle (center -2.032 0) (radius 0.508)
          (stroke (width 0) (type default) (color 0 0 0 0))
          (fill (type none))
        )
        (polyline
          (pts
            (xy 0 -3.048)
            (xy 0 -3.556)
          )
          (stroke (width 0) (type default) (color 0 0 0 0))
          (fill (type none))
        )
        (polyline
          (pts
            (xy 0 -2.032)
            (xy 0 -2.54)
          )
          (stroke (width 0) (type default) (color 0 0 0 0))
          (fill (type none))
        )
        (polyline
          (pts
            (xy 0 -1.524)
            (xy 0 -1.016)
          )
          (stroke (width 0) (type default) (color 0 0 0 0))
          (fill (type none))
        )
        (polyline
          (pts
            (xy 0 -0.508)
            (xy 0 0)
          )
          (stroke (width 0) (type default) (color 0 0 0 0))
          (fill (type none))
        )
        (polyline
          (pts
            (xy 0 0.508)
            (xy 0 1.016)
          )
          (stroke (width 0) (type default) (color 0 0 0 0))
          (fill (type none))
        )
        (polyline
          (pts
            (xy 0 1.27)
            (xy 0 3.048)
          )
          (stroke (width 0) (type default) (color 0 0 0 0))
          (fill (type none))
        )
        (polyline
          (pts
            (xy 2.54 -3.81)
            (xy -2.54 -3.81)
          )
          (stroke (width 0) (type default) (color 0 0 0 0))
          (fill (type none))
        )
        (polyline
          (pts
            (xy 2.54 1.27)
            (xy -2.54 1.27)
          )
          (stroke (width 0) (type default) (color 0 0 0 0))
          (fill (type none))
        )
        (circle (center 2.032 -5.08) (radius 0.508)
          (stroke (width 0) (type default) (color 0 0 0 0))
          (fill (type none))
        )
        (circle (center 2.032 0) (radius 0.508)
          (stroke (width 0) (type default) (color 0 0 0 0))
          (fill (type none))
        )
        (pin passive line (at -5.08 0 0) (length 2.54)
          (name "1" (effects (font (size 1.27 1.27))))
          (number "1" (effects (font (size 1.27 1.27))))
        )
        (pin passive line (at 5.08 0 180) (length 2.54)
          (name "2" (effects (font (size 1.27 1.27))))
          (number "2" (effects (font (size 1.27 1.27))))
        )
        (pin passive line (at -5.08 -5.08 0) (length 2.54)
          (name "3" (effects (font (size 1.27 1.27))))
          (number "3" (effects (font (size 1.27 1.27))))
        )
        (pin passive line (at 5.08 -5.08 180) (length 2.54)
          (name "4" (effects (font (size 1.27 1.27))))
          (number "4" (effects (font (size 1.27 1.27))))
        )
      )
    )
    (symbol "stopky:Dekoder" (in_bom yes) (on_board yes)
      (property "Reference" "U" (id 0) (at -5.08 -2.54 0)
        (effects (font (size 1.27 1.27)))
      )
      (property "Value" "Dekoder" (id 1) (at -5.08 0 0)
        (effects (font (size 1.27 1.27)))
      )
      (property "Footprint" "" (id 2) (at 0 0 0)
        (effects (font (size 1.27 1.27)) hide)
      )
      (property "Datasheet" "" (id 3) (at 0 0 0)
        (effects (font (size 1.27 1.27)) hide)
      )
      (symbol "Dekoder_0_1"
        (rectangle (start -13.97 11.43) (end 2.54 -20.32)
          (stroke (width 0) (type default) (color 0 0 0 0))
          (fill (type background))
        )
      )
      (symbol "Dekoder_1_1"
        (pin input line (at -15.24 8.89 0) (length 2.54)
          (name "B" (effects (font (size 1.27 1.27))))
          (number "1" (effects (font (size 1.27 1.27))))
        )
        (pin input line (at 3.81 -13.97 180) (length 2.54)
          (name "QD" (effects (font (size 1.27 1.27))))
          (number "10" (effects (font (size 1.27 1.27))))
        )
        (pin input line (at 3.81 -10.16 180) (length 2.54)
          (name "QC" (effects (font (size 1.27 1.27))))
          (number "11" (effects (font (size 1.27 1.27))))
        )
        (pin input line (at 3.81 -6.35 180) (length 2.54)
          (name "QB" (effects (font (size 1.27 1.27))))
          (number "12" (effects (font (size 1.27 1.27))))
        )
        (pin input line (at 3.81 -2.54 180) (length 2.54)
          (name "QA" (effects (font (size 1.27 1.27))))
          (number "13" (effects (font (size 1.27 1.27))))
        )
        (pin input line (at 3.81 1.27 180) (length 2.54)
          (name "QG" (effects (font (size 1.27 1.27))))
          (number "14" (effects (font (size 1.27 1.27))))
        )
        (pin input line (at 3.81 5.08 180) (length 2.54)
          (name "QF" (effects (font (size 1.27 1.27))))
          (number "15" (effects (font (size 1.27 1.27))))
        )
        (pin input line (at 3.81 8.89 180) (length 2.54)
          (name "Ucc" (effects (font (size 1.27 1.27))))
          (number "16" (effects (font (size 1.27 1.27))))
        )
        (pin input line (at -15.24 5.08 0) (length 2.54)
          (name "C" (effects (font (size 1.27 1.27))))
          (number "2" (effects (font (size 1.27 1.27))))
        )
        (pin input line (at -15.24 1.27 0) (length 2.54)
          (name "LT" (effects (font (size 1.27 1.27))))
          (number "3" (effects (font (size 1.27 1.27))))
        )
        (pin input line (at -15.24 -2.54 0) (length 2.54)
          (name "RBO" (effects (font (size 1.27 1.27))))
          (number "4" (effects (font (size 1.27 1.27))))
        )
        (pin input line (at -15.24 -6.35 0) (length 2.54)
          (name "RBI" (effects (font (size 1.27 1.27))))
          (number "5" (effects (font (size 1.27 1.27))))
        )
        (pin input line (at -15.24 -10.16 0) (length 2.54)
          (name "D" (effects (font (size 1.27 1.27))))
          (number "6" (effects (font (size 1.27 1.27))))
        )
        (pin input line (at -15.24 -13.97 0) (length 2.54)
          (name "A" (effects (font (size 1.27 1.27))))
          (number "7" (effects (font (size 1.27 1.27))))
        )
        (pin input line (at -15.24 -17.78 0) (length 2.54)
          (name "GND" (effects (font (size 1.27 1.27))))
          (number "8" (effects (font (size 1.27 1.27))))
        )
        (pin input line (at 3.81 -17.78 180) (length 2.54)
          (name "QE" (effects (font (size 1.27 1.27))))
          (number "9" (effects (font (size 1.27 1.27))))
        )
      )
    )
    (symbol "stopky:SEGMENT" (in_bom yes) (on_board yes)
      (property "Reference" "SEG" (id 0) (at 0 2.54 0)
        (effects (font (size 1.27 1.27)))
      )
      (property "Value" "SEGMENT" (id 1) (at 0 0 0)
        (effects (font (size 1.27 1.27)))
      )
      (property "Footprint" "" (id 2) (at 0 0 0)
        (effects (font (size 1.27 1.27)) hide)
      )
      (property "Datasheet" "" (id 3) (at 0 0 0)
        (effects (font (size 1.27 1.27)) hide)
      )
      (symbol "SEGMENT_0_1"
        (rectangle (start -10.16 10.16) (end 7.62 -7.62)
          (stroke (width 0) (type default) (color 0 0 0 0))
          (fill (type background))
        )
      )
      (symbol "SEGMENT_1_1"
        (pin input line (at -8.89 -8.89 90) (length 2.54)
          (name "E" (effects (font (size 1.27 1.27))))
          (number "1" (effects (font (size 1.27 1.27))))
        )
        (pin input line (at -8.89 11.43 270) (length 2.54)
          (name "G" (effects (font (size 1.27 1.27))))
          (number "10" (effects (font (size 1.27 1.27))))
        )
        (pin input line (at -5.08 -8.89 90) (length 2.54)
          (name "D" (effects (font (size 1.27 1.27))))
          (number "2" (effects (font (size 1.27 1.27))))
        )
        (pin input line (at -1.27 -8.89 90) (length 2.54)
          (name "COM" (effects (font (size 1.27 1.27))))
          (number "3" (effects (font (size 1.27 1.27))))
        )
        (pin input line (at 2.54 -8.89 90) (length 2.54)
          (name "C" (effects (font (size 1.27 1.27))))
          (number "4" (effects (font (size 1.27 1.27))))
        )
        (pin input line (at 6.35 -8.89 90) (length 2.54)
          (name "DP" (effects (font (size 1.27 1.27))))
          (number "5" (effects (font (size 1.27 1.27))))
        )
        (pin input line (at 6.35 11.43 270) (length 2.54)
          (name "B" (effects (font (size 1.27 1.27))))
          (number "6" (effects (font (size 1.27 1.27))))
        )
        (pin input line (at 2.54 11.43 270) (length 2.54)
          (name "A" (effects (font (size 1.27 1.27))))
          (number "7" (effects (font (size 1.27 1.27))))
        )
        (pin input line (at -1.27 11.43 270) (length 2.54)
          (name "COM" (effects (font (size 1.27 1.27))))
          (number "8" (effects (font (size 1.27 1.27))))
        )
        (pin input line (at -5.08 11.43 270) (length 2.54)
          (name "F" (effects (font (size 1.27 1.27))))
          (number "9" (effects (font (size 1.27 1.27))))
        )
      )
    )
  )

  (junction (at 123.19 143.51) (diameter 0) (color 0 0 0 0)
    (uuid 06d369d9-4170-4336-828f-a22170d72116)
  )
  (junction (at 53.34 27.94) (diameter 0) (color 0 0 0 0)
    (uuid 12f181c2-3244-4e4c-bb32-5b41edbd19f3)
  )
  (junction (at 81.28 77.47) (diameter 0) (color 0 0 0 0)
    (uuid 2351ef7c-b03a-4d34-92a3-7a8ffa0e317d)
  )
  (junction (at 81.28 114.3) (diameter 0) (color 0 0 0 0)
    (uuid 6606e545-f3bf-492a-84ac-cc871adf046b)
  )
  (junction (at 123.19 106.68) (diameter 0) (color 0 0 0 0)
    (uuid 6979c537-7ceb-4cf8-a038-42d10b63c927)
  )
  (junction (at 53.34 66.04) (diameter 0) (color 0 0 0 0)
    (uuid 72bb16d4-09f0-44a4-8b3c-4984450d4f1f)
  )
  (junction (at 53.34 104.14) (diameter 0) (color 0 0 0 0)
    (uuid 771cabc3-9c55-43f2-b910-f40cf3980a8c)
  )
  (junction (at 53.34 140.97) (diameter 0) (color 0 0 0 0)
    (uuid 9aa8c037-2eee-454b-98fd-a92e670c1f24)
  )
  (junction (at 123.19 68.58) (diameter 0) (color 0 0 0 0)
    (uuid debf30b1-4d0e-45fb-9eb3-8018d7e77c86)
  )
  (junction (at 81.28 39.37) (diameter 0) (color 0 0 0 0)
    (uuid ff8f2f6a-708f-4c87-9f85-b812b41e0c1e)
  )

  (wire (pts (xy 77.47 81.28) (xy 83.82 81.28))
    (stroke (width 0) (type default) (color 0 0 0 0))
    (uuid 008714b6-8431-49ff-bca4-e8950fe693d5)
  )
  (wire (pts (xy 91.44 96.52) (xy 93.98 96.52))
    (stroke (width 0) (type default) (color 0 0 0 0))
    (uuid 02386711-4acc-43eb-9952-3b2fbc55a9d3)
  )
  (wire (pts (xy 92.71 106.68) (xy 105.41 106.68))
    (stroke (width 0) (type default) (color 0 0 0 0))
    (uuid 02aa41c7-d803-497c-ac43-8382a28400dd)
  )
  (wire (pts (xy 77.47 85.09) (xy 83.82 85.09))
    (stroke (width 0) (type default) (color 0 0 0 0))
    (uuid 0614053e-e923-4575-b07a-483623e4b356)
  )
  (wire (pts (xy 53.34 140.97) (xy 53.34 182.88))
    (stroke (width 0) (type default) (color 0 0 0 0))
    (uuid 070845b8-8286-49ce-b2bc-9b9fe9fa41c2)
  )
  (wire (pts (xy 53.34 66.04) (xy 53.34 27.94))
    (stroke (width 0) (type default) (color 0 0 0 0))
    (uuid 090b6c3e-a0c9-4876-8187-28cfc1934b0a)
  )
  (wire (pts (xy 91.44 58.42) (xy 93.98 58.42))
    (stroke (width 0) (type default) (color 0 0 0 0))
    (uuid 0910d262-c873-4415-918a-60002292c785)
  )
  (wire (pts (xy 97.79 113.03) (xy 116.84 113.03))
    (stroke (width 0) (type default) (color 0 0 0 0))
    (uuid 09246488-122b-477a-a075-9e97f39a11cd)
  )
  (wire (pts (xy 105.41 43.18) (xy 105.41 44.45))
    (stroke (width 0) (type default) (color 0 0 0 0))
    (uuid 0a2a30de-9c7b-44b1-898a-918a2b967cab)
  )
  (wire (pts (xy 45.72 163.83) (xy 45.72 175.26))
    (stroke (width 0) (type default) (color 0 0 0 0))
    (uuid 0b982587-0ea3-479a-84f8-4782a3f7969b)
  )
  (wire (pts (xy 91.44 133.35) (xy 93.98 133.35))
    (stroke (width 0) (type default) (color 0 0 0 0))
    (uuid 0f0b93c2-6917-4937-a6b2-8b5889002747)
  )
  (wire (pts (xy 52.07 158.75) (xy 52.07 156.21))
    (stroke (width 0) (type default) (color 0 0 0 0))
    (uuid 0f2258ab-44b4-4f08-bae7-5d9a846190a0)
  )
  (wire (pts (xy 39.37 41.91) (xy 52.07 41.91))
    (stroke (width 0) (type default) (color 0 0 0 0))
    (uuid 0fe59d2e-a982-4b7e-869b-3c0cf9d6f688)
  )
  (wire (pts (xy 105.41 106.68) (xy 105.41 102.87))
    (stroke (width 0) (type default) (color 0 0 0 0))
    (uuid 101c93cb-a4dd-4d19-83c9-80f5e39ee7ca)
  )
  (wire (pts (xy 77.47 88.9) (xy 83.82 88.9))
    (stroke (width 0) (type default) (color 0 0 0 0))
    (uuid 12223afe-be2a-4cfa-b0e5-c251238526d7)
  )
  (wire (pts (xy 101.6 66.04) (xy 91.44 66.04))
    (stroke (width 0) (type default) (color 0 0 0 0))
    (uuid 12b699b4-8db6-4d96-81d0-70e244539966)
  )
  (wire (pts (xy 105.41 68.58) (xy 105.41 64.77))
    (stroke (width 0) (type default) (color 0 0 0 0))
    (uuid 135cfa10-3b21-4ac0-852b-ac4ffe1725c2)
  )
  (wire (pts (xy 39.37 82.55) (xy 52.07 82.55))
    (stroke (width 0) (type default) (color 0 0 0 0))
    (uuid 162ba526-b5b2-464f-a18f-749b911de068)
  )
  (wire (pts (xy 109.22 68.58) (xy 123.19 68.58))
    (stroke (width 0) (type default) (color 0 0 0 0))
    (uuid 16d9c145-347f-448e-8a42-e284df611562)
  )
  (wire (pts (xy 77.47 66.04) (xy 83.82 66.04))
    (stroke (width 0) (type default) (color 0 0 0 0))
    (uuid 17e963ed-5f8c-48cb-82a2-cf89657c3def)
  )
  (wire (pts (xy 97.79 54.61) (xy 97.79 38.1))
    (stroke (width 0) (type default) (color 0 0 0 0))
    (uuid 1a05f7a8-5e7e-4769-87a6-b75fa4320a14)
  )
  (wire (pts (xy 105.41 118.11) (xy 105.41 119.38))
    (stroke (width 0) (type default) (color 0 0 0 0))
    (uuid 1b7542a4-e7d0-4093-abc8-8cef1416d901)
  )
  (wire (pts (xy 116.84 113.03) (xy 116.84 119.38))
    (stroke (width 0) (type default) (color 0 0 0 0))
    (uuid 1df4f820-06e8-4d4f-9685-2fcb47005504)
  )
  (wire (pts (xy 96.52 39.37) (xy 113.03 39.37))
    (stroke (width 0) (type default) (color 0 0 0 0))
    (uuid 21eeb27a-2593-4078-8512-8502cf2871a9)
  )
  (wire (pts (xy 77.47 96.52) (xy 83.82 96.52))
    (stroke (width 0) (type default) (color 0 0 0 0))
    (uuid 21f94908-f205-41ba-a9ce-4106b3cb4d22)
  )
  (wire (pts (xy 109.22 64.77) (xy 109.22 68.58))
    (stroke (width 0) (type default) (color 0 0 0 0))
    (uuid 2204927c-fb6a-402f-b2c2-58edfd0d31d5)
  )
  (wire (pts (xy 96.52 167.64) (xy 96.52 156.21))
    (stroke (width 0) (type default) (color 0 0 0 0))
    (uuid 2351002a-c625-46f7-8f4f-06869551d2ed)
  )
  (wire (pts (xy 81.28 114.3) (xy 77.47 114.3))
    (stroke (width 0) (type default) (color 0 0 0 0))
    (uuid 25c849ca-192b-4905-a97c-86de7c308647)
  )
  (wire (pts (xy 123.19 106.68) (xy 123.19 143.51))
    (stroke (width 0) (type default) (color 0 0 0 0))
    (uuid 2a5b2103-5be7-4eaf-b0e5-ac34c435348e)
  )
  (wire (pts (xy 91.44 118.11) (xy 105.41 118.11))
    (stroke (width 0) (type default) (color 0 0 0 0))
    (uuid 2bfc48ea-803e-4fb7-826a-11df2d5ce80f)
  )
  (wire (pts (xy 116.84 154.94) (xy 116.84 161.29))
    (stroke (width 0) (type default) (color 0 0 0 0))
    (uuid 2c35cbd8-6c56-44a7-a372-000a74ee0ce1)
  )
  (wire (pts (xy 91.44 125.73) (xy 96.52 125.73))
    (stroke (width 0) (type default) (color 0 0 0 0))
    (uuid 2f940a56-4f71-494f-82b1-d9569c89d424)
  )
  (wire (pts (xy 91.44 160.02) (xy 105.41 160.02))
    (stroke (width 0) (type default) (color 0 0 0 0))
    (uuid 303d01ec-89be-4008-b47c-cdf01cc8f071)
  )
  (wire (pts (xy 91.44 163.83) (xy 95.25 163.83))
    (stroke (width 0) (type default) (color 0 0 0 0))
    (uuid 32ce21ba-447e-4f27-b8e3-101d75f991f5)
  )
  (wire (pts (xy 91.44 92.71) (xy 97.79 92.71))
    (stroke (width 0) (type default) (color 0 0 0 0))
    (uuid 36b11d62-f7dc-44a2-b95f-53dd6210ef98)
  )
  (wire (pts (xy 77.47 43.18) (xy 83.82 43.18))
    (stroke (width 0) (type default) (color 0 0 0 0))
    (uuid 36df185b-290e-440f-b46c-8b930cd14598)
  )
  (wire (pts (xy 91.44 121.92) (xy 95.25 121.92))
    (stroke (width 0) (type default) (color 0 0 0 0))
    (uuid 38340e66-c86e-4c2b-a085-e402df0ec47c)
  )
  (wire (pts (xy 92.71 137.16) (xy 92.71 143.51))
    (stroke (width 0) (type default) (color 0 0 0 0))
    (uuid 3ac4a1b2-8b66-464d-bd58-49f699128e71)
  )
  (wire (pts (xy 96.52 77.47) (xy 113.03 77.47))
    (stroke (width 0) (type default) (color 0 0 0 0))
    (uuid 3b6cc600-1029-4a10-8242-2ea485496dd8)
  )
  (wire (pts (xy 81.28 114.3) (xy 81.28 156.21))
    (stroke (width 0) (type default) (color 0 0 0 0))
    (uuid 3c2a0c87-5d8c-4b0f-922d-0c529467761b)
  )
  (wire (pts (xy 52.07 80.01) (xy 52.07 77.47))
    (stroke (width 0) (type default) (color 0 0 0 0))
    (uuid 3fadf23d-8564-49ca-9b2b-e3cfa24a2805)
  )
  (wire (pts (xy 52.07 81.28) (xy 58.42 81.28))
    (stroke (width 0) (type default) (color 0 0 0 0))
    (uuid 42fbbae3-2a6a-41dc-9e5c-312b2af3d5a5)
  )
  (wire (pts (xy 97.79 76.2) (xy 116.84 76.2))
    (stroke (width 0) (type default) (color 0 0 0 0))
    (uuid 435b7640-a719-442b-93fc-9dd2b86bc4bc)
  )
  (wire (pts (xy 77.47 163.83) (xy 83.82 163.83))
    (stroke (width 0) (type default) (color 0 0 0 0))
    (uuid 4494e4fa-667c-48f8-82cf-0b200db91b52)
  )
  (wire (pts (xy 52.07 44.45) (xy 52.07 43.18))
    (stroke (width 0) (type default) (color 0 0 0 0))
    (uuid 45a06f45-50cd-4a1c-ada2-7edf02d255da)
  )
  (wire (pts (xy 101.6 182.88) (xy 91.44 182.88))
    (stroke (width 0) (type default) (color 0 0 0 0))
    (uuid 460192ee-8287-4aee-9831-22b595668c64)
  )
  (wire (pts (xy 39.37 77.47) (xy 49.53 77.47))
    (stroke (width 0) (type default) (color 0 0 0 0))
    (uuid 4a0cd1aa-6956-49d7-9ae0-f26128acb216)
  )
  (wire (pts (xy 96.52 88.9) (xy 96.52 77.47))
    (stroke (width 0) (type default) (color 0 0 0 0))
    (uuid 4ae8d756-f3b9-479b-9a72-a19d47512a24)
  )
  (wire (pts (xy 92.71 185.42) (xy 105.41 185.42))
    (stroke (width 0) (type default) (color 0 0 0 0))
    (uuid 4b786471-0bf2-4cef-9fb9-c166e4c7ec7f)
  )
  (wire (pts (xy 81.28 39.37) (xy 77.47 39.37))
    (stroke (width 0) (type default) (color 0 0 0 0))
    (uuid 4d65d8c9-d4da-497a-b850-1e446c1e8b30)
  )
  (wire (pts (xy 97.79 154.94) (xy 116.84 154.94))
    (stroke (width 0) (type default) (color 0 0 0 0))
    (uuid 4f317155-6788-4019-a238-20978fa8e640)
  )
  (wire (pts (xy 101.6 140.97) (xy 91.44 140.97))
    (stroke (width 0) (type default) (color 0 0 0 0))
    (uuid 50f388c7-73c7-4324-b24c-934d47e05a49)
  )
  (wire (pts (xy 91.44 179.07) (xy 92.71 179.07))
    (stroke (width 0) (type default) (color 0 0 0 0))
    (uuid 51ed5cba-ccd0-45ca-aa93-ac606bff3888)
  )
  (wire (pts (xy 113.03 156.21) (xy 113.03 161.29))
    (stroke (width 0) (type default) (color 0 0 0 0))
    (uuid 52800418-d274-4093-a59e-3058f59fbf55)
  )
  (wire (pts (xy 93.98 58.42) (xy 93.98 69.85))
    (stroke (width 0) (type default) (color 0 0 0 0))
    (uuid 56758cc7-dba4-4f02-b89d-ff38da06896c)
  )
  (wire (pts (xy 91.44 100.33) (xy 92.71 100.33))
    (stroke (width 0) (type default) (color 0 0 0 0))
    (uuid 5aaa90fe-4927-425f-9c6c-2a5633197156)
  )
  (wire (pts (xy 77.47 179.07) (xy 83.82 179.07))
    (stroke (width 0) (type default) (color 0 0 0 0))
    (uuid 5c31b618-8669-4dbe-8b22-a27ae3dd3fe8)
  )
  (wire (pts (xy 92.71 100.33) (xy 92.71 106.68))
    (stroke (width 0) (type default) (color 0 0 0 0))
    (uuid 5c3e7a1d-197a-48ed-bef2-f761e4a3e901)
  )
  (wire (pts (xy 49.53 179.07) (xy 58.42 179.07))
    (stroke (width 0) (type default) (color 0 0 0 0))
    (uuid 5e10cdbb-ffa6-4690-b4d9-687406ba60f3)
  )
  (wire (pts (xy 53.34 104.14) (xy 53.34 140.97))
    (stroke (width 0) (type default) (color 0 0 0 0))
    (uuid 5e1faab7-6ffc-4b31-b2ed-661ba79ec41e)
  )
  (wire (pts (xy 53.34 27.94) (xy 123.19 27.94))
    (stroke (width 0) (type default) (color 0 0 0 0))
    (uuid 5fa2d9c9-3e86-4f7f-a25b-6c4ae44f653e)
  )
  (wire (pts (xy 52.07 41.91) (xy 52.07 39.37))
    (stroke (width 0) (type default) (color 0 0 0 0))
    (uuid 629ab4ef-0404-4002-ade8-d3e53536e5a3)
  )
  (wire (pts (xy 101.6 181.61) (xy 101.6 182.88))
    (stroke (width 0) (type default) (color 0 0 0 0))
    (uuid 62cd6cc7-500a-4f65-85be-79c8e0fa638b)
  )
  (wire (pts (xy 45.72 46.99) (xy 45.72 58.42))
    (stroke (width 0) (type default) (color 0 0 0 0))
    (uuid 64fa69b1-e149-4268-ab57-30741a917f83)
  )
  (wire (pts (xy 109.22 102.87) (xy 109.22 106.68))
    (stroke (width 0) (type default) (color 0 0 0 0))
    (uuid 6682f3f1-7c4e-425b-8886-6c6491ed61b8)
  )
  (wire (pts (xy 77.47 62.23) (xy 83.82 62.23))
    (stroke (width 0) (type default) (color 0 0 0 0))
    (uuid 67b55542-6d4e-426e-a097-91eced90ace5)
  )
  (wire (pts (xy 109.22 185.42) (xy 123.19 185.42))
    (stroke (width 0) (type default) (color 0 0 0 0))
    (uuid 67c8c93a-59ff-43a9-a723-4c86169d537d)
  )
  (wire (pts (xy 109.22 143.51) (xy 123.19 143.51))
    (stroke (width 0) (type default) (color 0 0 0 0))
    (uuid 6c320e18-7473-4d42-88fd-9c40fda1651c)
  )
  (wire (pts (xy 39.37 114.3) (xy 49.53 114.3))
    (stroke (width 0) (type default) (color 0 0 0 0))
    (uuid 6c62fb6f-cabd-400a-80c0-ff79596ba054)
  )
  (wire (pts (xy 39.37 116.84) (xy 52.07 116.84))
    (stroke (width 0) (type default) (color 0 0 0 0))
    (uuid 6c63ddd0-62d5-4491-8160-82c2b3919d40)
  )
  (wire (pts (xy 49.53 62.23) (xy 58.42 62.23))
    (stroke (width 0) (type default) (color 0 0 0 0))
    (uuid 6d11a9d9-4f9f-4e59-b792-fe40f7112c8a)
  )
  (wire (pts (xy 91.44 54.61) (xy 97.79 54.61))
    (stroke (width 0) (type default) (color 0 0 0 0))
    (uuid 6d882835-c878-4e11-95d9-88b881417e4e)
  )
  (wire (pts (xy 81.28 39.37) (xy 81.28 77.47))
    (stroke (width 0) (type default) (color 0 0 0 0))
    (uuid 700ef7bc-c405-477b-82d2-401afa5a71f3)
  )
  (wire (pts (xy 39.37 158.75) (xy 52.07 158.75))
    (stroke (width 0) (type default) (color 0 0 0 0))
    (uuid 70a749e0-84e2-486e-ba48-94b7a7718745)
  )
  (wire (pts (xy 45.72 133.35) (xy 58.42 133.35))
    (stroke (width 0) (type default) (color 0 0 0 0))
    (uuid 71a2ac62-14c5-47ac-993f-964274c3bd0c)
  )
  (wire (pts (xy 77.47 58.42) (xy 83.82 58.42))
    (stroke (width 0) (type default) (color 0 0 0 0))
    (uuid 71c56a0b-71b4-4760-af1b-24a4df62fe8d)
  )
  (wire (pts (xy 45.72 96.52) (xy 58.42 96.52))
    (stroke (width 0) (type default) (color 0 0 0 0))
    (uuid 72679186-86e6-42aa-b48e-e9f618dc84fe)
  )
  (wire (pts (xy 91.44 129.54) (xy 97.79 129.54))
    (stroke (width 0) (type default) (color 0 0 0 0))
    (uuid 73052f37-8c8f-4122-bb21-bda6302acf5b)
  )
  (wire (pts (xy 52.07 43.18) (xy 58.42 43.18))
    (stroke (width 0) (type default) (color 0 0 0 0))
    (uuid 75040d92-030e-420e-b749-e43168809542)
  )
  (wire (pts (xy 39.37 121.92) (xy 45.72 121.92))
    (stroke (width 0) (type default) (color 0 0 0 0))
    (uuid 75c47a0e-4e12-4669-a205-3d61d2bcaf94)
  )
  (wire (pts (xy 77.47 129.54) (xy 83.82 129.54))
    (stroke (width 0) (type default) (color 0 0 0 0))
    (uuid 764e4193-e53d-45f4-8204-3503fa066a6e)
  )
  (wire (pts (xy 95.25 119.38) (xy 101.6 119.38))
    (stroke (width 0) (type default) (color 0 0 0 0))
    (uuid 764f659a-5c27-455b-9a21-49637a3f0463)
  )
  (wire (pts (xy 96.52 156.21) (xy 113.03 156.21))
    (stroke (width 0) (type default) (color 0 0 0 0))
    (uuid 7a71f242-79ff-4576-a8b1-6012b8b24f40)
  )
  (wire (pts (xy 101.6 139.7) (xy 101.6 140.97))
    (stroke (width 0) (type default) (color 0 0 0 0))
    (uuid 7b100b31-6a28-4e46-b854-e466de0d3dc9)
  )
  (wire (pts (xy 77.47 92.71) (xy 83.82 92.71))
    (stroke (width 0) (type default) (color 0 0 0 0))
    (uuid 7b6c33d9-d019-47cd-ad0a-fcc9d2253c89)
  )
  (wire (pts (xy 39.37 80.01) (xy 52.07 80.01))
    (stroke (width 0) (type default) (color 0 0 0 0))
    (uuid 7c5e9981-3deb-44af-9d39-7f565e422b93)
  )
  (wire (pts (xy 39.37 44.45) (xy 52.07 44.45))
    (stroke (width 0) (type default) (color 0 0 0 0))
    (uuid 7de78642-ae45-420e-8acd-0c841ff21999)
  )
  (wire (pts (xy 95.25 161.29) (xy 101.6 161.29))
    (stroke (width 0) (type default) (color 0 0 0 0))
    (uuid 7e5949fd-c47b-49ae-bae3-8b9a5aafd4ca)
  )
  (wire (pts (xy 39.37 39.37) (xy 49.53 39.37))
    (stroke (width 0) (type default) (color 0 0 0 0))
    (uuid 7e60ed78-a3e8-4429-a8a1-a4d2ea167a74)
  )
  (wire (pts (xy 58.42 182.88) (xy 53.34 182.88))
    (stroke (width 0) (type default) (color 0 0 0 0))
    (uuid 7e9c259b-9f45-4a19-9cc8-7578fdd54ceb)
  )
  (wire (pts (xy 52.07 39.37) (xy 58.42 39.37))
    (stroke (width 0) (type default) (color 0 0 0 0))
    (uuid 7ef48423-d7d4-48c0-8f50-41ea9cebf35a)
  )
  (wire (pts (xy 93.98 133.35) (xy 93.98 144.78))
    (stroke (width 0) (type default) (color 0 0 0 0))
    (uuid 7f8eef98-54b9-49ae-b2e3-32883ff31ec7)
  )
  (wire (pts (xy 81.28 31.75) (xy 81.28 39.37))
    (stroke (width 0) (type default) (color 0 0 0 0))
    (uuid 7f949959-1c24-49c2-987b-093ea690ff39)
  )
  (wire (pts (xy 91.44 167.64) (xy 96.52 167.64))
    (stroke (width 0) (type default) (color 0 0 0 0))
    (uuid 8364da4a-a3d4-4679-a5a0-d5c30f2efecc)
  )
  (wire (pts (xy 96.52 114.3) (xy 113.03 114.3))
    (stroke (width 0) (type default) (color 0 0 0 0))
    (uuid 89109936-36d7-416d-93ce-ac578688997f)
  )
  (wire (pts (xy 77.47 100.33) (xy 83.82 100.33))
    (stroke (width 0) (type default) (color 0 0 0 0))
    (uuid 89ea89b4-edaf-4ede-a5de-49c2350457f5)
  )
  (wire (pts (xy 113.03 139.7) (xy 113.03 144.78))
    (stroke (width 0) (type default) (color 0 0 0 0))
    (uuid 89ecd797-0ac3-4676-8484-c79329078877)
  )
  (wire (pts (xy 95.25 82.55) (xy 101.6 82.55))
    (stroke (width 0) (type default) (color 0 0 0 0))
    (uuid 8a2f4041-219e-4f29-9dac-71c377aa876c)
  )
  (wire (pts (xy 116.84 76.2) (xy 116.84 82.55))
    (stroke (width 0) (type default) (color 0 0 0 0))
    (uuid 8cdc09b0-f450-4cc4-a169-f82c9215d0f2)
  )
  (wire (pts (xy 53.34 66.04) (xy 53.34 104.14))
    (stroke (width 0) (type default) (color 0 0 0 0))
    (uuid 8d41e655-9632-409c-ac41-d41162d53b20)
  )
  (wire (pts (xy 113.03 39.37) (xy 113.03 44.45))
    (stroke (width 0) (type default) (color 0 0 0 0))
    (uuid 8da7cbe5-8189-4901-bd0c-636b50ff1880)
  )
  (wire (pts (xy 123.19 27.94) (xy 123.19 68.58))
    (stroke (width 0) (type default) (color 0 0 0 0))
    (uuid 8f2bdbf5-172b-4508-a879-c86b0e20f258)
  )
  (wire (pts (xy 49.53 77.47) (xy 49.53 100.33))
    (stroke (width 0) (type default) (color 0 0 0 0))
    (uuid 8f8cbc52-e313-4710-a4e1-5bb52edb9ab6)
  )
  (wire (pts (xy 52.07 116.84) (xy 52.07 114.3))
    (stroke (width 0) (type default) (color 0 0 0 0))
    (uuid 8fc7e1bf-78e7-439c-9e72-96b09b50a201)
  )
  (wire (pts (xy 52.07 119.38) (xy 52.07 118.11))
    (stroke (width 0) (type default) (color 0 0 0 0))
    (uuid 917fda70-f8f0-4a31-aab4-f1a2f39a9c9b)
  )
  (wire (pts (xy 109.22 139.7) (xy 109.22 143.51))
    (stroke (width 0) (type default) (color 0 0 0 0))
    (uuid 92d1c1fc-e02d-4df4-b73b-0502f61b1c11)
  )
  (wire (pts (xy 77.47 137.16) (xy 83.82 137.16))
    (stroke (width 0) (type default) (color 0 0 0 0))
    (uuid 92d20ed0-38f9-4df2-bbd5-fb8918cc2c7d)
  )
  (wire (pts (xy 113.03 77.47) (xy 113.03 82.55))
    (stroke (width 0) (type default) (color 0 0 0 0))
    (uuid 933af56d-2a7a-44f9-b53c-16d12b6ed35e)
  )
  (wire (pts (xy 81.28 77.47) (xy 77.47 77.47))
    (stroke (width 0) (type default) (color 0 0 0 0))
    (uuid 9364becd-50c5-4c1a-ba12-d0e22bd11274)
  )
  (wire (pts (xy 39.37 46.99) (xy 45.72 46.99))
    (stroke (width 0) (type default) (color 0 0 0 0))
    (uuid 941804a2-a86b-46f0-8e4d-eccaf68f3a32)
  )
  (wire (pts (xy 101.6 104.14) (xy 91.44 104.14))
    (stroke (width 0) (type default) (color 0 0 0 0))
    (uuid 9445bd4a-05ef-4446-9200-46300fbabf06)
  )
  (wire (pts (xy 52.07 118.11) (xy 58.42 118.11))
    (stroke (width 0) (type default) (color 0 0 0 0))
    (uuid 949df4f8-3716-451f-89ef-2d97389fe200)
  )
  (wire (pts (xy 105.41 143.51) (xy 105.41 139.7))
    (stroke (width 0) (type default) (color 0 0 0 0))
    (uuid 958d5f85-fe5e-4d2c-9d4a-e2b1bce60794)
  )
  (wire (pts (xy 109.22 181.61) (xy 109.22 185.42))
    (stroke (width 0) (type default) (color 0 0 0 0))
    (uuid 9658aec5-8c2a-464f-9819-2be762956b06)
  )
  (wire (pts (xy 45.72 85.09) (xy 45.72 96.52))
    (stroke (width 0) (type default) (color 0 0 0 0))
    (uuid 98d4c176-cc66-4e89-913b-af86857922fa)
  )
  (wire (pts (xy 91.44 81.28) (xy 105.41 81.28))
    (stroke (width 0) (type default) (color 0 0 0 0))
    (uuid 9cf69c07-7ea4-455a-aa5a-a17f5d268719)
  )
  (wire (pts (xy 91.44 43.18) (xy 105.41 43.18))
    (stroke (width 0) (type default) (color 0 0 0 0))
    (uuid 9dff8c4e-d65e-45f1-a62f-fd651dfbbfc1)
  )
  (wire (pts (xy 77.47 133.35) (xy 83.82 133.35))
    (stroke (width 0) (type default) (color 0 0 0 0))
    (uuid 9f51f21e-2dee-47a5-8f1a-7e44b2437613)
  )
  (wire (pts (xy 58.42 104.14) (xy 53.34 104.14))
    (stroke (width 0) (type default) (color 0 0 0 0))
    (uuid 9fc0f69a-94d8-4c9d-bd96-bebabef83479)
  )
  (wire (pts (xy 77.47 121.92) (xy 83.82 121.92))
    (stroke (width 0) (type default) (color 0 0 0 0))
    (uuid a06d3884-46f4-43dd-8073-95658b098b37)
  )
  (wire (pts (xy 95.25 85.09) (xy 95.25 82.55))
    (stroke (width 0) (type default) (color 0 0 0 0))
    (uuid a0b07a54-b200-4888-816c-b9e139815064)
  )
  (wire (pts (xy 52.07 77.47) (xy 58.42 77.47))
    (stroke (width 0) (type default) (color 0 0 0 0))
    (uuid a0ca92bb-49b5-4e4a-8e53-cd4f1079fe23)
  )
  (wire (pts (xy 39.37 161.29) (xy 52.07 161.29))
    (stroke (width 0) (type default) (color 0 0 0 0))
    (uuid a2286009-d4e5-4442-bb13-b1ae086e966c)
  )
  (wire (pts (xy 105.41 81.28) (xy 105.41 82.55))
    (stroke (width 0) (type default) (color 0 0 0 0))
    (uuid a2910c91-715e-44ee-9571-62fa86d5935b)
  )
  (wire (pts (xy 91.44 88.9) (xy 96.52 88.9))
    (stroke (width 0) (type default) (color 0 0 0 0))
    (uuid a3f58312-97b9-4fa8-8b1f-c9de5304c796)
  )
  (wire (pts (xy 52.07 160.02) (xy 58.42 160.02))
    (stroke (width 0) (type default) (color 0 0 0 0))
    (uuid a49d7dda-7611-4b19-8a7a-b1db8db2ba23)
  )
  (wire (pts (xy 49.53 114.3) (xy 49.53 137.16))
    (stroke (width 0) (type default) (color 0 0 0 0))
    (uuid a5d7de8f-b1e6-45f5-b47a-df2aa161d58e)
  )
  (wire (pts (xy 93.98 175.26) (xy 93.98 186.69))
    (stroke (width 0) (type default) (color 0 0 0 0))
    (uuid aa8227b2-0060-42f2-b8c6-b6b95cf03a85)
  )
  (wire (pts (xy 91.44 175.26) (xy 93.98 175.26))
    (stroke (width 0) (type default) (color 0 0 0 0))
    (uuid aacf9919-a001-4bc2-819f-c08310969ab9)
  )
  (wire (pts (xy 95.25 44.45) (xy 101.6 44.45))
    (stroke (width 0) (type default) (color 0 0 0 0))
    (uuid ab96155f-e455-42a9-8f5a-1ee342549e88)
  )
  (wire (pts (xy 52.07 114.3) (xy 58.42 114.3))
    (stroke (width 0) (type default) (color 0 0 0 0))
    (uuid abb4cdf7-1f89-45c1-8d02-a8a1620a686b)
  )
  (wire (pts (xy 77.47 167.64) (xy 83.82 167.64))
    (stroke (width 0) (type default) (color 0 0 0 0))
    (uuid ac0f56d6-212e-4882-8f60-158297c53ea3)
  )
  (wire (pts (xy 49.53 137.16) (xy 58.42 137.16))
    (stroke (width 0) (type default) (color 0 0 0 0))
    (uuid ad4c0586-6e3f-4d85-a857-e25f4b83014b)
  )
  (wire (pts (xy 92.71 62.23) (xy 92.71 68.58))
    (stroke (width 0) (type default) (color 0 0 0 0))
    (uuid add3fad5-8190-42a6-8e3a-4089f5564eba)
  )
  (wire (pts (xy 92.71 179.07) (xy 92.71 185.42))
    (stroke (width 0) (type default) (color 0 0 0 0))
    (uuid af86130e-1ad8-453b-83df-a86108948cb6)
  )
  (wire (pts (xy 77.47 125.73) (xy 83.82 125.73))
    (stroke (width 0) (type default) (color 0 0 0 0))
    (uuid b216c088-3384-4174-a0fc-f2dc5ebcf931)
  )
  (wire (pts (xy 91.44 46.99) (xy 95.25 46.99))
    (stroke (width 0) (type default) (color 0 0 0 0))
    (uuid b26e03ba-d499-42c1-a7f6-68d3ce5e858d)
  )
  (wire (pts (xy 97.79 129.54) (xy 97.79 113.03))
    (stroke (width 0) (type default) (color 0 0 0 0))
    (uuid b3249dc2-78f6-4e96-a354-308c8da73fd2)
  )
  (wire (pts (xy 77.47 160.02) (xy 83.82 160.02))
    (stroke (width 0) (type default) (color 0 0 0 0))
    (uuid b541e0c4-c858-41fb-8ccd-050565d3ba6a)
  )
  (wire (pts (xy 123.19 143.51) (xy 123.19 185.42))
    (stroke (width 0) (type default) (color 0 0 0 0))
    (uuid b5b516a1-0857-4227-86d9-46accd74fcdf)
  )
  (wire (pts (xy 113.03 102.87) (xy 113.03 107.95))
    (stroke (width 0) (type default) (color 0 0 0 0))
    (uuid b6d80095-fd32-4e53-88dc-236c9c4a98dc)
  )
  (wire (pts (xy 113.03 64.77) (xy 113.03 69.85))
    (stroke (width 0) (type default) (color 0 0 0 0))
    (uuid b8d71515-e1f3-4e69-afb4-716fb1f5323c)
  )
  (wire (pts (xy 91.44 171.45) (xy 97.79 171.45))
    (stroke (width 0) (type default) (color 0 0 0 0))
    (uuid ba5a334c-fc1c-4d34-aba6-a8d9aa86759d)
  )
  (wire (pts (xy 77.47 46.99) (xy 83.82 46.99))
    (stroke (width 0) (type default) (color 0 0 0 0))
    (uuid bec26e7c-9fae-4e81-9ae5-010cc5fbaecd)
  )
  (wire (pts (xy 81.28 77.47) (xy 81.28 114.3))
    (stroke (width 0) (type default) (color 0 0 0 0))
    (uuid bfb673e5-7009-423c-adc9-89d6394651b9)
  )
  (wire (pts (xy 49.53 156.21) (xy 49.53 179.07))
    (stroke (width 0) (type default) (color 0 0 0 0))
    (uuid c0b9fce1-a49b-46d7-8e2c-765870650fc3)
  )
  (wire (pts (xy 116.84 38.1) (xy 116.84 44.45))
    (stroke (width 0) (type default) (color 0 0 0 0))
    (uuid c28db896-8908-4ae7-bb84-b518010e1f69)
  )
  (wire (pts (xy 39.37 156.21) (xy 49.53 156.21))
    (stroke (width 0) (type default) (color 0 0 0 0))
    (uuid c2fbaabf-c4dd-416a-9875-f2365b804802)
  )
  (wire (pts (xy 52.07 156.21) (xy 58.42 156.21))
    (stroke (width 0) (type default) (color 0 0 0 0))
    (uuid c43cb232-c4eb-4a39-8de3-661cf89c0f54)
  )
  (wire (pts (xy 123.19 68.58) (xy 123.19 106.68))
    (stroke (width 0) (type default) (color 0 0 0 0))
    (uuid c5eaa654-f4a2-42f4-a32c-724f09eb7952)
  )
  (wire (pts (xy 58.42 140.97) (xy 53.34 140.97))
    (stroke (width 0) (type default) (color 0 0 0 0))
    (uuid c6496cc3-7244-4fc2-85eb-459bccfd6fbb)
  )
  (wire (pts (xy 49.53 39.37) (xy 49.53 62.23))
    (stroke (width 0) (type default) (color 0 0 0 0))
    (uuid c6ca94ca-99b6-43a9-b5d1-c0217882cd56)
  )
  (wire (pts (xy 96.52 50.8) (xy 96.52 39.37))
    (stroke (width 0) (type default) (color 0 0 0 0))
    (uuid c8551bbb-f874-41b3-8d1d-cbd1a79226d1)
  )
  (wire (pts (xy 77.47 171.45) (xy 83.82 171.45))
    (stroke (width 0) (type default) (color 0 0 0 0))
    (uuid c8f5e504-1441-4737-9e24-cb6b3fe6e475)
  )
  (wire (pts (xy 101.6 64.77) (xy 101.6 66.04))
    (stroke (width 0) (type default) (color 0 0 0 0))
    (uuid c9ef76de-31e8-454a-877d-8e19391e91dd)
  )
  (wire (pts (xy 45.72 58.42) (xy 58.42 58.42))
    (stroke (width 0) (type default) (color 0 0 0 0))
    (uuid cbdde017-ae9a-43b2-a214-ee90e80c1dfd)
  )
  (wire (pts (xy 93.98 186.69) (xy 113.03 186.69))
    (stroke (width 0) (type default) (color 0 0 0 0))
    (uuid cc6beed8-021c-4365-a0d1-e9f17c6ee54f)
  )
  (wire (pts (xy 96.52 125.73) (xy 96.52 114.3))
    (stroke (width 0) (type default) (color 0 0 0 0))
    (uuid ce200e21-d3ff-4531-b514-4a587292d60f)
  )
  (wire (pts (xy 95.25 163.83) (xy 95.25 161.29))
    (stroke (width 0) (type default) (color 0 0 0 0))
    (uuid d2221502-8050-40db-a18c-44a83e4a1a52)
  )
  (wire (pts (xy 93.98 107.95) (xy 113.03 107.95))
    (stroke (width 0) (type default) (color 0 0 0 0))
    (uuid d2b88353-3caf-45ca-a1f0-0a99275a792a)
  )
  (wire (pts (xy 101.6 102.87) (xy 101.6 104.14))
    (stroke (width 0) (type default) (color 0 0 0 0))
    (uuid d2f4015c-1f3e-49d5-a275-3f7106dbb167)
  )
  (wire (pts (xy 77.47 182.88) (xy 83.82 182.88))
    (stroke (width 0) (type default) (color 0 0 0 0))
    (uuid d4300e68-5d94-4a61-8b0d-d595b0be82a7)
  )
  (wire (pts (xy 91.44 137.16) (xy 92.71 137.16))
    (stroke (width 0) (type default) (color 0 0 0 0))
    (uuid d442d636-b93c-4374-b219-9a0f3954ee99)
  )
  (wire (pts (xy 39.37 85.09) (xy 45.72 85.09))
    (stroke (width 0) (type default) (color 0 0 0 0))
    (uuid d8360afe-374d-4b7d-90b9-325177281c17)
  )
  (wire (pts (xy 45.72 121.92) (xy 45.72 133.35))
    (stroke (width 0) (type default) (color 0 0 0 0))
    (uuid d8941246-47b6-4c01-96ed-af0a5fd100c3)
  )
  (wire (pts (xy 113.03 181.61) (xy 113.03 186.69))
    (stroke (width 0) (type default) (color 0 0 0 0))
    (uuid da8114b3-9efd-4a79-80e6-353841b1fa30)
  )
  (wire (pts (xy 92.71 143.51) (xy 105.41 143.51))
    (stroke (width 0) (type default) (color 0 0 0 0))
    (uuid db1fafbe-e7fd-48a4-8b34-f09d62246e0f)
  )
  (wire (pts (xy 91.44 50.8) (xy 96.52 50.8))
    (stroke (width 0) (type default) (color 0 0 0 0))
    (uuid db92a30f-ad32-4364-ba94-67697906f6bc)
  )
  (wire (pts (xy 49.53 100.33) (xy 58.42 100.33))
    (stroke (width 0) (type default) (color 0 0 0 0))
    (uuid dc2adbb4-5d96-4ace-99ed-4cafa5d688db)
  )
  (wire (pts (xy 91.44 85.09) (xy 95.25 85.09))
    (stroke (width 0) (type default) (color 0 0 0 0))
    (uuid dfecb506-6af1-4dbd-b35c-a0be0f88831b)
  )
  (wire (pts (xy 95.25 46.99) (xy 95.25 44.45))
    (stroke (width 0) (type default) (color 0 0 0 0))
    (uuid dff3f14e-8863-4867-a89a-2c793acb9888)
  )
  (wire (pts (xy 92.71 68.58) (xy 105.41 68.58))
    (stroke (width 0) (type default) (color 0 0 0 0))
    (uuid e12f866e-988d-413a-8834-76c770a5c03e)
  )
  (wire (pts (xy 97.79 92.71) (xy 97.79 76.2))
    (stroke (width 0) (type default) (color 0 0 0 0))
    (uuid e32a5653-3bb7-41f1-862d-caff363f9b76)
  )
  (wire (pts (xy 77.47 54.61) (xy 83.82 54.61))
    (stroke (width 0) (type default) (color 0 0 0 0))
    (uuid e4fa82ce-9215-4d73-9778-41ce1ac5807b)
  )
  (wire (pts (xy 39.37 163.83) (xy 45.72 163.83))
    (stroke (width 0) (type default) (color 0 0 0 0))
    (uuid e6641593-55d9-465c-a0c8-fbd7cc827634)
  )
  (wire (pts (xy 105.41 160.02) (xy 105.41 161.29))
    (stroke (width 0) (type default) (color 0 0 0 0))
    (uuid e6ccff4d-36bf-43bd-b66c-cddd1ab9baec)
  )
  (wire (pts (xy 97.79 171.45) (xy 97.79 154.94))
    (stroke (width 0) (type default) (color 0 0 0 0))
    (uuid e8191f8f-9765-4a90-b64c-8699dec07235)
  )
  (wire (pts (xy 39.37 31.75) (xy 81.28 31.75))
    (stroke (width 0) (type default) (color 0 0 0 0))
    (uuid e8e6267f-e450-4893-8b39-c16123a4e55f)
  )
  (wire (pts (xy 53.34 27.94) (xy 39.37 27.94))
    (stroke (width 0) (type default) (color 0 0 0 0))
    (uuid e943092f-a40b-409c-b147-b01f7a504a2e)
  )
  (wire (pts (xy 77.47 140.97) (xy 83.82 140.97))
    (stroke (width 0) (type default) (color 0 0 0 0))
    (uuid e9f55679-903d-43e3-8e87-8b41a6100193)
  )
  (wire (pts (xy 95.25 121.92) (xy 95.25 119.38))
    (stroke (width 0) (type default) (color 0 0 0 0))
    (uuid eb1ea072-9e8a-4a35-a745-2fcf110fb7fa)
  )
  (wire (pts (xy 81.28 156.21) (xy 77.47 156.21))
    (stroke (width 0) (type default) (color 0 0 0 0))
    (uuid ec9cb71d-e111-4847-8b8a-375efc165f4e)
  )
  (wire (pts (xy 91.44 62.23) (xy 92.71 62.23))
    (stroke (width 0) (type default) (color 0 0 0 0))
    (uuid eeea44de-fe67-4c32-8bc5-1fe612dc5ffa)
  )
  (wire (pts (xy 93.98 144.78) (xy 113.03 144.78))
    (stroke (width 0) (type default) (color 0 0 0 0))
    (uuid f334634a-c2b2-4201-afdc-ae2ec5a3fc98)
  )
  (wire (pts (xy 113.03 114.3) (xy 113.03 119.38))
    (stroke (width 0) (type default) (color 0 0 0 0))
    (uuid f58dafe9-cc4a-499d-b581-5167a4c54764)
  )
  (wire (pts (xy 45.72 175.26) (xy 58.42 175.26))
    (stroke (width 0) (type default) (color 0 0 0 0))
    (uuid f662f63e-2d69-43ca-8a55-59d3c3fb444a)
  )
  (wire (pts (xy 39.37 119.38) (xy 52.07 119.38))
    (stroke (width 0) (type default) (color 0 0 0 0))
    (uuid f77030a2-e63c-4203-92a0-7c6c8e3ae753)
  )
  (wire (pts (xy 105.41 185.42) (xy 105.41 181.61))
    (stroke (width 0) (type default) (color 0 0 0 0))
    (uuid f80421f0-55a1-4293-8027-842e74d57df1)
  )
  (wire (pts (xy 93.98 96.52) (xy 93.98 107.95))
    (stroke (width 0) (type default) (color 0 0 0 0))
    (uuid f86afa16-0d96-49ea-ac11-cb6e1e8248b0)
  )
  (wire (pts (xy 77.47 50.8) (xy 83.82 50.8))
    (stroke (width 0) (type default) (color 0 0 0 0))
    (uuid f87bbbaa-ca4d-4769-9818-9cd2ed1effd5)
  )
  (wire (pts (xy 77.47 118.11) (xy 83.82 118.11))
    (stroke (width 0) (type default) (color 0 0 0 0))
    (uuid f9c0b4ba-fc8e-46f7-97ac-ffeae3b51eab)
  )
  (wire (pts (xy 77.47 104.14) (xy 83.82 104.14))
    (stroke (width 0) (type default) (color 0 0 0 0))
    (uuid f9f29168-4878-4a1b-b00f-4b5770c02b3d)
  )
  (wire (pts (xy 77.47 175.26) (xy 83.82 175.26))
    (stroke (width 0) (type default) (color 0 0 0 0))
    (uuid faeff6f3-70ba-404d-a88a-b36b60731cf7)
  )
  (wire (pts (xy 52.07 82.55) (xy 52.07 81.28))
    (stroke (width 0) (type default) (color 0 0 0 0))
    (uuid faf5e626-e1d9-4529-904f-55441ff1ca4d)
  )
  (wire (pts (xy 97.79 38.1) (xy 116.84 38.1))
    (stroke (width 0) (type default) (color 0 0 0 0))
    (uuid fbbfedba-0f84-4ee8-84ab-f924a7eb2e5d)
  )
  (wire (pts (xy 52.07 161.29) (xy 52.07 160.02))
    (stroke (width 0) (type default) (color 0 0 0 0))
    (uuid fc074f21-7e65-4759-b89b-63c015be4aa7)
  )
  (wire (pts (xy 58.42 66.04) (xy 53.34 66.04))
    (stroke (width 0) (type default) (color 0 0 0 0))
    (uuid fcaf8558-0fbf-4d73-afa6-ea981fa4d23d)
  )
  (wire (pts (xy 109.22 106.68) (xy 123.19 106.68))
    (stroke (width 0) (type default) (color 0 0 0 0))
    (uuid fcba5688-79f0-4113-b920-120f53a207d9)
  )
  (wire (pts (xy 93.98 69.85) (xy 113.03 69.85))
    (stroke (width 0) (type default) (color 0 0 0 0))
    (uuid fcd166c1-40fe-4554-8272-6b4f93211498)
  )

  (symbol (lib_id "stopky:Dekoder") (at 73.66 86.36 0) (unit 1)
    (in_bom yes) (on_board yes) (fields_autoplaced)
    (uuid 00cb7c8b-75dd-4a4b-84cc-74b92dbcc0b0)
    (property "Reference" "U2" (id 0) (at 67.945 69.85 0))
    (property "Value" "Dekoder" (id 1) (at 67.945 72.39 0))
    (property "Footprint" "Package_DIP:DIP-16_W7.62mm" (id 2) (at 73.66 86.36 0)
      (effects (font (size 1.27 1.27)) hide)
    )
    (property "Datasheet" "" (id 3) (at 73.66 86.36 0)
      (effects (font (size 1.27 1.27)) hide)
    )
    (pin "1" (uuid d1d6b5ca-d73b-4bf8-88a9-ea4c63e5d524))
    (pin "10" (uuid 5b242ebf-05e7-46be-85a3-91afd20912f2))
    (pin "11" (uuid ad9f4bdd-a0f2-4418-b474-de0bfdb8a2ac))
    (pin "12" (uuid 84c9f4e8-0a15-4fe4-b1bc-46e0b7134e73))
    (pin "13" (uuid 1204440f-7bd1-4fd2-82d9-7d0b2bbb987b))
    (pin "14" (uuid 364d1f74-b687-4682-9369-c155a0ff8601))
    (pin "15" (uuid 3c4c3501-cc45-4ee4-81fd-2a335885e144))
    (pin "16" (uuid 093affba-4243-4394-bcf6-682dc5c14b03))
    (pin "2" (uuid 2ba25977-857b-47ee-9bf7-26d7564539ab))
    (pin "3" (uuid 707f4d1f-9721-4842-936e-26d93e74183e))
    (pin "4" (uuid bc27f526-2a7a-4869-a503-744596acc730))
    (pin "5" (uuid 79000447-d89e-4186-babe-2da4bb91203d))
    (pin "6" (uuid bd5b8be8-1aa4-4651-b17c-e1bb90904267))
    (pin "7" (uuid 30c6f91f-78ec-4b32-869a-163c4cb1214f))
    (pin "8" (uuid de704429-8bb5-4395-92f1-1e93d7b09f10))
    (pin "9" (uuid dee8cea5-8d9c-44a2-82ff-2a2df0857447))
  )

  (symbol (lib_id "stopky:SEGMENT") (at 110.49 172.72 0) (unit 1)
    (in_bom yes) (on_board yes) (fields_autoplaced)
    (uuid 0c1ded24-3b05-4468-b5b8-b367b7f0c374)
    (property "Reference" "SEG4" (id 0) (at 119.38 170.1799 0)
      (effects (font (size 1.27 1.27)) (justify left))
    )
    (property "Value" "SEGMENT" (id 1) (at 119.38 172.7199 0)
      (effects (font (size 1.27 1.27)) (justify left))
    )
    (property "Footprint" "Display_7Segment:7SegmentLED_LTS6760_LTS6780" (id 2) (at 110.49 172.72 0)
      (effects (font (size 1.27 1.27)) hide)
    )
    (property "Datasheet" "" (id 3) (at 110.49 172.72 0)
      (effects (font (size 1.27 1.27)) hide)
    )
    (pin "1" (uuid e4477e60-5564-451e-bcbe-6fb00b585cdd))
    (pin "10" (uuid f861b255-6857-48a2-9197-f4c94574e296))
    (pin "2" (uuid 0ab5afd1-a025-46e6-bf76-d72d0ea243f1))
    (pin "3" (uuid 77ecccf8-4e58-42fb-8ae0-e8ded3bffecd))
    (pin "4" (uuid 6438b8c9-948c-472a-b3d3-c23ecb301ada))
    (pin "5" (uuid 56b8e76e-ef55-4f62-8689-1becfe462b66))
    (pin "6" (uuid 6f1d739a-bf51-4ff7-99e8-ab94b6f6a958))
    (pin "7" (uuid 21356db3-30ae-4be9-9580-1a23f270729d))
    (pin "8" (uuid 9dae4951-80d9-4a76-87b6-229e11851e78))
    (pin "9" (uuid ef3b034b-42ac-41a4-b87d-2311de1d394d))
  )

  (symbol (lib_id "Connector:Conn_01x01_Male") (at 34.29 31.75 0) (unit 1)
    (in_bom yes) (on_board yes)
    (uuid 11f2ca96-22ff-4e11-809a-9f69e8628acf)
    (property "Reference" "J3" (id 0) (at 34.925 26.67 0))
    (property "Value" "UCC" (id 1) (at 35.56 29.21 0))
    (property "Footprint" "Connector_PinSocket_2.54mm:PinSocket_1x01_P2.54mm_Vertical" (id 2) (at 34.29 31.75 0)
      (effects (font (size 1.27 1.27)) hide)
    )
    (property "Datasheet" "~" (id 3) (at 34.29 31.75 0)
      (effects (font (size 1.27 1.27)) hide)
    )
    (pin "1" (uuid 4b28b842-9d83-4676-bb2b-82c372810370))
  )

  (symbol (lib_id "Device:R") (at 87.63 88.9 90) (unit 1)
    (in_bom yes) (on_board yes) (fields_autoplaced)
    (uuid 14935df1-9233-40d2-ae31-1c153959189e)
    (property "Reference" "R10" (id 0) (at 87.63 82.55 90))
    (property "Value" "R" (id 1) (at 87.63 85.09 90))
    (property "Footprint" "Resistor_THT:R_Axial_DIN0207_L6.3mm_D2.5mm_P10.16mm_Horizontal" (id 2) (at 87.63 90.678 90)
      (effects (font (size 1.27 1.27)) hide)
    )
    (property "Datasheet" "~" (id 3) (at 87.63 88.9 0)
      (effects (font (size 1.27 1.27)) hide)
    )
    (pin "1" (uuid 84c909a0-ed98-47f3-8911-24c8c1ac9a19))
    (pin "2" (uuid 8a17e744-2e3b-4f64-b324-6b7af2e5d5e2))
  )

  (symbol (lib_id "Connector:Conn_01x01_Male") (at 147.32 27.94 180) (unit 1)
    (in_bom yes) (on_board yes)
    (uuid 19a7dc8f-95c1-4aed-b807-27027ace376b)
    (property "Reference" "J1" (id 0) (at 146.685 33.02 0))
    (property "Value" "C5" (id 1) (at 146.05 30.48 0))
    (property "Footprint" "Connector_PinSocket_2.54mm:PinSocket_1x01_P2.54mm_Vertical" (id 2) (at 147.32 27.94 0)
      (effects (font (size 1.27 1.27)) hide)
    )
    (property "Datasheet" "~" (id 3) (at 147.32 27.94 0)
      (effects (font (size 1.27 1.27)) hide)
    )
    (pin "1" (uuid 0b6bb0fd-afaf-441d-98b6-095ac00e7062))
  )

  (symbol (lib_id "Connector:Conn_01x04_Male") (at 34.29 116.84 0) (unit 1)
    (in_bom yes) (on_board yes) (fields_autoplaced)
    (uuid 292bfb5b-001c-4fab-ab59-2b2dbddb400e)
    (property "Reference" "J6" (id 0) (at 34.925 109.22 0))
    (property "Value" "Conn_01x04_Male" (id 1) (at 34.925 111.76 0))
    (property "Footprint" "Connector_PinSocket_2.54mm:PinSocket_1x04_P2.54mm_Vertical" (id 2) (at 34.29 116.84 0)
      (effects (font (size 1.27 1.27)) hide)
    )
    (property "Datasheet" "~" (id 3) (at 34.29 116.84 0)
      (effects (font (size 1.27 1.27)) hide)
    )
    (pin "1" (uuid 1d25c7dc-6bf7-40f0-8d60-032441bb4230))
    (pin "2" (uuid 4af3db05-c320-452b-a548-c79e418fc590))
    (pin "3" (uuid ade4d878-fc28-49dd-bad7-e5c443e70fa7))
    (pin "4" (uuid bc67f08c-4233-46fb-966a-7cecad8d969c))
  )

  (symbol (lib_id "Connector:Conn_01x04_Male") (at 34.29 41.91 0) (unit 1)
    (in_bom yes) (on_board yes) (fields_autoplaced)
    (uuid 2b6d8fa3-5dee-4df6-93c8-e99a27d19ef4)
    (property "Reference" "J4" (id 0) (at 34.925 34.29 0))
    (property "Value" "Conn_01x04_Male" (id 1) (at 34.925 36.83 0))
    (property "Footprint" "Connector_PinSocket_2.54mm:PinSocket_1x04_P2.54mm_Vertical" (id 2) (at 34.29 41.91 0)
      (effects (font (size 1.27 1.27)) hide)
    )
    (property "Datasheet" "~" (id 3) (at 34.29 41.91 0)
      (effects (font (size 1.27 1.27)) hide)
    )
    (pin "1" (uuid 06e219b6-d587-4293-86ac-c38e8b51d021))
    (pin "2" (uuid 1b20ee09-ff29-49bb-8b8d-e6cef60bdce9))
    (pin "3" (uuid 48d35b43-87e8-409b-bc6b-cd9069c5b7bf))
    (pin "4" (uuid 91c75774-4106-4140-a979-bf5ab5b16738))
  )

  (symbol (lib_id "Device:R") (at 87.63 62.23 90) (unit 1)
    (in_bom yes) (on_board yes) (fields_autoplaced)
    (uuid 2ed47819-d200-4716-8cd5-ba1e14c8bdf1)
    (property "Reference" "R6" (id 0) (at 87.63 55.88 90))
    (property "Value" "R" (id 1) (at 87.63 58.42 90))
    (property "Footprint" "Resistor_THT:R_Axial_DIN0207_L6.3mm_D2.5mm_P10.16mm_Horizontal" (id 2) (at 87.63 64.008 90)
      (effects (font (size 1.27 1.27)) hide)
    )
    (property "Datasheet" "~" (id 3) (at 87.63 62.23 0)
      (effects (font (size 1.27 1.27)) hide)
    )
    (pin "1" (uuid 2cbe4be5-9a74-4d66-9c4d-a615886ed5c0))
    (pin "2" (uuid 3b74e1ae-6232-4105-a4c5-f2c16552e83a))
  )

  (symbol (lib_id "Device:R") (at 87.63 92.71 90) (unit 1)
    (in_bom yes) (on_board yes) (fields_autoplaced)
    (uuid 32f811e5-0745-4fd2-afc5-75aa9cfcaca4)
    (property "Reference" "R11" (id 0) (at 87.63 86.36 90))
    (property "Value" "R" (id 1) (at 87.63 88.9 90))
    (property "Footprint" "Resistor_THT:R_Axial_DIN0207_L6.3mm_D2.5mm_P10.16mm_Horizontal" (id 2) (at 87.63 94.488 90)
      (effects (font (size 1.27 1.27)) hide)
    )
    (property "Datasheet" "~" (id 3) (at 87.63 92.71 0)
      (effects (font (size 1.27 1.27)) hide)
    )
    (pin "1" (uuid 416323a9-8eb6-4aca-9ace-657f07c6bef2))
    (pin "2" (uuid db36f484-087c-41a4-a3a5-398e713f974c))
  )

  (symbol (lib_id "Device:R") (at 87.63 104.14 90) (unit 1)
    (in_bom yes) (on_board yes) (fields_autoplaced)
    (uuid 33899aea-6b40-4754-8ca7-38705f34c15b)
    (property "Reference" "R14" (id 0) (at 87.63 97.79 90))
    (property "Value" "R" (id 1) (at 87.63 100.33 90))
    (property "Footprint" "Resistor_THT:R_Axial_DIN0207_L6.3mm_D2.5mm_P10.16mm_Horizontal" (id 2) (at 87.63 105.918 90)
      (effects (font (size 1.27 1.27)) hide)
    )
    (property "Datasheet" "~" (id 3) (at 87.63 104.14 0)
      (effects (font (size 1.27 1.27)) hide)
    )
    (pin "1" (uuid 92e93541-fc8b-4850-9a46-a20db897187f))
    (pin "2" (uuid a6e94828-c2af-4590-87bc-bbd0bec08f80))
  )

  (symbol (lib_id "stopky:SEGMENT") (at 110.49 55.88 0) (unit 1)
    (in_bom yes) (on_board yes) (fields_autoplaced)
    (uuid 33e4793f-e68e-4418-9255-83644e47fe6b)
    (property "Reference" "SEG1" (id 0) (at 119.38 53.3399 0)
      (effects (font (size 1.27 1.27)) (justify left))
    )
    (property "Value" "SEGMENT" (id 1) (at 119.38 55.8799 0)
      (effects (font (size 1.27 1.27)) (justify left))
    )
    (property "Footprint" "Display_7Segment:7SegmentLED_LTS6760_LTS6780" (id 2) (at 110.49 55.88 0)
      (effects (font (size 1.27 1.27)) hide)
    )
    (property "Datasheet" "" (id 3) (at 110.49 55.88 0)
      (effects (font (size 1.27 1.27)) hide)
    )
    (pin "1" (uuid 391ae467-e13d-4fb2-8a38-3398194aa77d))
    (pin "10" (uuid 4f4a8116-e6fe-4df5-b426-d619f2a88760))
    (pin "2" (uuid 18a55598-4d17-43c4-89af-e8813ae5eb3b))
    (pin "3" (uuid 08f99a2e-73ff-460e-b89f-e9ab04b2aa04))
    (pin "4" (uuid 0fe60e7a-5745-46d3-8e75-d9d362e371fc))
    (pin "5" (uuid 116f30b3-1a42-4e4f-9c85-03301abfb6c2))
    (pin "6" (uuid ea4475d8-2ce6-4eb4-a7f4-80fe741cc0f6))
    (pin "7" (uuid 0e0812a5-86bf-4443-9a2a-a20234f5f6aa))
    (pin "8" (uuid cf87cc03-110e-4295-93ed-48626b747fb1))
    (pin "9" (uuid 069d27a6-9b81-44ad-a12d-82373f35b745))
  )

  (symbol (lib_id "Device:R") (at 87.63 175.26 90) (unit 1)
    (in_bom yes) (on_board yes) (fields_autoplaced)
    (uuid 34113fd5-daf1-4190-bf24-d5354b52c41b)
    (property "Reference" "R26" (id 0) (at 87.63 168.91 90))
    (property "Value" "R" (id 1) (at 87.63 171.45 90))
    (property "Footprint" "Resistor_THT:R_Axial_DIN0207_L6.3mm_D2.5mm_P10.16mm_Horizontal" (id 2) (at 87.63 177.038 90)
      (effects (font (size 1.27 1.27)) hide)
    )
    (property "Datasheet" "~" (id 3) (at 87.63 175.26 0)
      (effects (font (size 1.27 1.27)) hide)
    )
    (pin "1" (uuid 0da3933e-1315-4ade-9d0d-540f69b81b93))
    (pin "2" (uuid 31b3e012-db4f-45a6-925a-78d9f1d01426))
  )

  (symbol (lib_id "Device:R") (at 87.63 50.8 90) (unit 1)
    (in_bom yes) (on_board yes) (fields_autoplaced)
    (uuid 3923a0cc-c542-4277-8d78-4c0deea29a4c)
    (property "Reference" "R3" (id 0) (at 87.63 44.45 90))
    (property "Value" "R" (id 1) (at 87.63 46.99 90))
    (property "Footprint" "Resistor_THT:R_Axial_DIN0207_L6.3mm_D2.5mm_P10.16mm_Horizontal" (id 2) (at 87.63 52.578 90)
      (effects (font (size 1.27 1.27)) hide)
    )
    (property "Datasheet" "~" (id 3) (at 87.63 50.8 0)
      (effects (font (size 1.27 1.27)) hide)
    )
    (pin "1" (uuid 0a0b370b-badc-4b90-9c0f-59b9853d8bbd))
    (pin "2" (uuid 633388dd-4ee5-481f-aef6-5c9ce4378979))
  )

  (symbol (lib_id "Connector:Conn_01x04_Male") (at 34.29 80.01 0) (unit 1)
    (in_bom yes) (on_board yes) (fields_autoplaced)
    (uuid 3a118c26-682c-4f16-91de-6243d94f61cb)
    (property "Reference" "J5" (id 0) (at 34.925 72.39 0))
    (property "Value" "Conn_01x04_Male" (id 1) (at 34.925 74.93 0))
    (property "Footprint" "Connector_PinSocket_2.54mm:PinSocket_1x04_P2.54mm_Vertical" (id 2) (at 34.29 80.01 0)
      (effects (font (size 1.27 1.27)) hide)
    )
    (property "Datasheet" "~" (id 3) (at 34.29 80.01 0)
      (effects (font (size 1.27 1.27)) hide)
    )
    (pin "1" (uuid a41c4ea3-5981-40fb-86e1-ea562b649080))
    (pin "2" (uuid 132cbb7d-15d7-4805-82e5-bfef17b03362))
    (pin "3" (uuid ae9e153e-0c36-4a20-a8ec-f4b6822ae9c1))
    (pin "4" (uuid 6687258f-d4ea-4557-81ea-15029f04cb08))
  )

  (symbol (lib_id "Device:R") (at 87.63 179.07 90) (unit 1)
    (in_bom yes) (on_board yes) (fields_autoplaced)
    (uuid 3ff36b83-ba0a-417f-a636-7e280b251131)
    (property "Reference" "R27" (id 0) (at 87.63 172.72 90))
    (property "Value" "R" (id 1) (at 87.63 175.26 90))
    (property "Footprint" "Resistor_THT:R_Axial_DIN0207_L6.3mm_D2.5mm_P10.16mm_Horizontal" (id 2) (at 87.63 180.848 90)
      (effects (font (size 1.27 1.27)) hide)
    )
    (property "Datasheet" "~" (id 3) (at 87.63 179.07 0)
      (effects (font (size 1.27 1.27)) hide)
    )
    (pin "1" (uuid 3bf43a6f-b442-46fc-9510-88fc2270c982))
    (pin "2" (uuid 0a17f8af-0415-4002-8e59-5bb47b795568))
  )

  (symbol (lib_id "Device:R") (at 87.63 43.18 90) (unit 1)
    (in_bom yes) (on_board yes) (fields_autoplaced)
    (uuid 4126d392-495e-4ef5-9351-6f700c8637bc)
    (property "Reference" "R1" (id 0) (at 87.63 36.83 90))
    (property "Value" "R" (id 1) (at 87.63 39.37 90))
    (property "Footprint" "Resistor_THT:R_Axial_DIN0207_L6.3mm_D2.5mm_P10.16mm_Horizontal" (id 2) (at 87.63 44.958 90)
      (effects (font (size 1.27 1.27)) hide)
    )
    (property "Datasheet" "~" (id 3) (at 87.63 43.18 0)
      (effects (font (size 1.27 1.27)) hide)
    )
    (pin "1" (uuid c548aac3-2100-48bf-a57e-c299f9466e79))
    (pin "2" (uuid 6162fbb8-6718-45ec-b23f-6a6f1488ec21))
  )

  (symbol (lib_id "Device:R") (at 87.63 125.73 90) (unit 1)
    (in_bom yes) (on_board yes) (fields_autoplaced)
    (uuid 43f46fc5-f2d7-4793-a048-938718fe0d2c)
    (property "Reference" "R17" (id 0) (at 87.63 119.38 90))
    (property "Value" "R" (id 1) (at 87.63 121.92 90))
    (property "Footprint" "Resistor_THT:R_Axial_DIN0207_L6.3mm_D2.5mm_P10.16mm_Horizontal" (id 2) (at 87.63 127.508 90)
      (effects (font (size 1.27 1.27)) hide)
    )
    (property "Datasheet" "~" (id 3) (at 87.63 125.73 0)
      (effects (font (size 1.27 1.27)) hide)
    )
    (pin "1" (uuid 82f618d4-f674-4776-8d4e-c3f44c9eb2f8))
    (pin "2" (uuid 9efc7896-ff84-4c52-bea7-c5e04c9fa1d7))
  )

  (symbol (lib_id "Device:R") (at 87.63 58.42 90) (unit 1)
    (in_bom yes) (on_board yes) (fields_autoplaced)
    (uuid 497590c0-d6c6-4feb-ad9c-00093a0bf36b)
    (property "Reference" "R5" (id 0) (at 87.63 52.07 90))
    (property "Value" "R" (id 1) (at 87.63 54.61 90))
    (property "Footprint" "Resistor_THT:R_Axial_DIN0207_L6.3mm_D2.5mm_P10.16mm_Horizontal" (id 2) (at 87.63 60.198 90)
      (effects (font (size 1.27 1.27)) hide)
    )
    (property "Datasheet" "~" (id 3) (at 87.63 58.42 0)
      (effects (font (size 1.27 1.27)) hide)
    )
    (pin "1" (uuid 27337bbb-7b22-4dcf-9032-a730fe760b3c))
    (pin "2" (uuid 3067b239-4354-4da4-b233-bfb8ca9ed30e))
  )

  (symbol (lib_id "Device:R") (at 87.63 81.28 90) (unit 1)
    (in_bom yes) (on_board yes) (fields_autoplaced)
    (uuid 4b20cab3-2a4e-47de-b256-a223c5a957e2)
    (property "Reference" "R8" (id 0) (at 87.63 74.93 90))
    (property "Value" "R" (id 1) (at 87.63 77.47 90))
    (property "Footprint" "Resistor_THT:R_Axial_DIN0207_L6.3mm_D2.5mm_P10.16mm_Horizontal" (id 2) (at 87.63 83.058 90)
      (effects (font (size 1.27 1.27)) hide)
    )
    (property "Datasheet" "~" (id 3) (at 87.63 81.28 0)
      (effects (font (size 1.27 1.27)) hide)
    )
    (pin "1" (uuid 779b4002-85a7-4370-b5ff-42db59bb31a1))
    (pin "2" (uuid 84a654e0-eb06-4ec1-a2b4-889efaec4882))
  )

  (symbol (lib_id "stopky:SEGMENT") (at 110.49 130.81 0) (unit 1)
    (in_bom yes) (on_board yes) (fields_autoplaced)
    (uuid 5b5468a6-8eb1-4edf-adb5-e1e619b15489)
    (property "Reference" "SEG3" (id 0) (at 119.38 128.2699 0)
      (effects (font (size 1.27 1.27)) (justify left))
    )
    (property "Value" "SEGMENT" (id 1) (at 119.38 130.8099 0)
      (effects (font (size 1.27 1.27)) (justify left))
    )
    (property "Footprint" "Display_7Segment:7SegmentLED_LTS6760_LTS6780" (id 2) (at 110.49 130.81 0)
      (effects (font (size 1.27 1.27)) hide)
    )
    (property "Datasheet" "" (id 3) (at 110.49 130.81 0)
      (effects (font (size 1.27 1.27)) hide)
    )
    (pin "1" (uuid 12540388-cde8-4cf2-9405-6e6f29bc86ac))
    (pin "10" (uuid c4baf61b-d37e-4e5f-89a3-c25cd7a15982))
    (pin "2" (uuid 1028dbca-50cd-4318-830b-42219faefd32))
    (pin "3" (uuid bdd6beca-c116-4c9c-ade7-8e8aee9880da))
    (pin "4" (uuid e2027ae9-495e-4506-88f5-a159a3032763))
    (pin "5" (uuid 5a456041-2bc1-4456-8ed4-94e954fa90d4))
    (pin "6" (uuid ef6983ed-5728-47aa-aaaa-f76456ff2cfe))
    (pin "7" (uuid 1f05f2aa-86a7-4c29-8ffe-036f9d2f5229))
    (pin "8" (uuid e14a6321-8665-46de-a393-65f5f41bf786))
    (pin "9" (uuid dae9d6c2-22e2-44c5-9e64-25d83bc2c2dc))
  )

  (symbol (lib_id "Device:R") (at 87.63 85.09 90) (unit 1)
    (in_bom yes) (on_board yes) (fields_autoplaced)
    (uuid 611aa2e9-17c9-4a50-ae6a-be7ac494c98e)
    (property "Reference" "R9" (id 0) (at 87.63 78.74 90))
    (property "Value" "R" (id 1) (at 87.63 81.28 90))
    (property "Footprint" "Resistor_THT:R_Axial_DIN0207_L6.3mm_D2.5mm_P10.16mm_Horizontal" (id 2) (at 87.63 86.868 90)
      (effects (font (size 1.27 1.27)) hide)
    )
    (property "Datasheet" "~" (id 3) (at 87.63 85.09 0)
      (effects (font (size 1.27 1.27)) hide)
    )
    (pin "1" (uuid 1dd4b946-7a1a-43c1-9013-0350e2a9b530))
    (pin "2" (uuid f009b9cf-c02d-462f-9e00-2f274e0e4a33))
  )

  (symbol (lib_id "stopky:Dekoder") (at 73.66 165.1 0) (unit 1)
    (in_bom yes) (on_board yes) (fields_autoplaced)
    (uuid 6e2d9142-8cee-41fa-95fc-6c92ddaa441e)
    (property "Reference" "U4" (id 0) (at 67.945 148.59 0))
    (property "Value" "Dekoder" (id 1) (at 67.945 151.13 0))
    (property "Footprint" "Package_DIP:DIP-16_W7.62mm" (id 2) (at 73.66 165.1 0)
      (effects (font (size 1.27 1.27)) hide)
    )
    (property "Datasheet" "" (id 3) (at 73.66 165.1 0)
      (effects (font (size 1.27 1.27)) hide)
    )
    (pin "1" (uuid f012ecb4-e833-4d0d-b9f7-32bd1ff9197c))
    (pin "10" (uuid 59deb61c-9aa8-4fb2-8172-3a24a13dcd7d))
    (pin "11" (uuid 04857141-559a-4dcf-879f-ae9295e5c5aa))
    (pin "12" (uuid 1c0d65c0-eaab-45b3-9cc6-41a9b2763bac))
    (pin "13" (uuid 53cb9da0-8ca7-4d2c-b067-70321d63c648))
    (pin "14" (uuid aa479ed8-a1fe-46ab-bff0-aeebfe35eeb1))
    (pin "15" (uuid 6e3cc1e9-2e47-426c-b0b8-008c8860a62c))
    (pin "16" (uuid a029aed3-1725-4120-8cf0-0f202da417de))
    (pin "2" (uuid 236d5851-8dcd-43dd-8184-67a4fa61cac9))
    (pin "3" (uuid 842d63f0-1825-446e-82bc-d4eb72dbcaf7))
    (pin "4" (uuid dc51a45a-ef79-4ec0-8f06-a0b073b6989b))
    (pin "5" (uuid 57700ad7-e55c-46b2-a2af-50e0a6f69a33))
    (pin "6" (uuid f2657fee-ac8d-4b76-93b1-e94eee766a80))
    (pin "7" (uuid d1751b37-741b-4a11-b1db-4886843be029))
    (pin "8" (uuid 22b362d5-106e-4193-99cd-64773d0268fd))
    (pin "9" (uuid 88ef85eb-6dca-407a-b5f5-8319868ddece))
  )

  (symbol (lib_id "stopky:SEGMENT") (at 110.49 93.98 0) (unit 1)
    (in_bom yes) (on_board yes) (fields_autoplaced)
    (uuid 6e5579a3-5e09-479f-bcf8-1db8c69bbfbe)
    (property "Reference" "SEG2" (id 0) (at 119.38 91.4399 0)
      (effects (font (size 1.27 1.27)) (justify left))
    )
    (property "Value" "SEGMENT" (id 1) (at 119.38 93.9799 0)
      (effects (font (size 1.27 1.27)) (justify left))
    )
    (property "Footprint" "Display_7Segment:7SegmentLED_LTS6760_LTS6780" (id 2) (at 110.49 93.98 0)
      (effects (font (size 1.27 1.27)) hide)
    )
    (property "Datasheet" "" (id 3) (at 110.49 93.98 0)
      (effects (font (size 1.27 1.27)) hide)
    )
    (pin "1" (uuid 560831a1-87af-42ea-975d-d89b8541d861))
    (pin "10" (uuid df4fe527-c046-4162-8fd0-68ed8509f3e7))
    (pin "2" (uuid 0e89222a-7742-4892-b57c-bd5dc6a8a3b3))
    (pin "3" (uuid b339dcb1-5ea2-43b7-bc3b-40dc7650ceb3))
    (pin "4" (uuid 320029b1-953e-4480-9870-c9cc7d6cac41))
    (pin "5" (uuid 9022071a-9ac1-4da8-a361-c6ac63148590))
    (pin "6" (uuid 6c882bff-64cf-4da5-a071-5fe4cd21d345))
    (pin "7" (uuid 0765eba0-bc69-446e-9fa1-ef787741257f))
    (pin "8" (uuid fdd5b223-f198-4b66-9697-ad733d5fac43))
    (pin "9" (uuid 9a91e65e-7440-4ad5-b284-5333fae0521f))
  )

  (symbol (lib_id "Connector:Conn_01x04_Male") (at 34.29 158.75 0) (unit 1)
    (in_bom yes) (on_board yes) (fields_autoplaced)
    (uuid 73cac702-8a4d-46d3-a717-3f14de43514f)
    (property "Reference" "J7" (id 0) (at 34.925 151.13 0))
    (property "Value" "Conn_01x04_Male" (id 1) (at 34.925 153.67 0))
    (property "Footprint" "Connector_PinSocket_2.54mm:PinSocket_1x04_P2.54mm_Vertical" (id 2) (at 34.29 158.75 0)
      (effects (font (size 1.27 1.27)) hide)
    )
    (property "Datasheet" "~" (id 3) (at 34.29 158.75 0)
      (effects (font (size 1.27 1.27)) hide)
    )
    (pin "1" (uuid c3e0169d-bc15-40b4-98c5-87fa655821d5))
    (pin "2" (uuid da08e749-3873-48ae-acfb-21ffdfd0eb8f))
    (pin "3" (uuid a619a08d-5aab-4fa1-bd05-da64ead45184))
    (pin "4" (uuid 00348220-e4c9-49c9-9c9b-7f813359954b))
  )

  (symbol (lib_id "Connector:Conn_01x01_Male") (at 34.29 27.94 0) (unit 1)
    (in_bom yes) (on_board yes)
    (uuid 73d8c72e-5d68-425e-b708-da9c1a3ffc64)
    (property "Reference" "J2" (id 0) (at 34.925 22.86 0))
    (property "Value" "GND" (id 1) (at 35.56 25.4 0))
    (property "Footprint" "Connector_PinSocket_2.54mm:PinSocket_1x01_P2.54mm_Vertical" (id 2) (at 34.29 27.94 0)
      (effects (font (size 1.27 1.27)) hide)
    )
    (property "Datasheet" "~" (id 3) (at 34.29 27.94 0)
      (effects (font (size 1.27 1.27)) hide)
    )
    (pin "1" (uuid b1bbf5fc-248f-4f6e-a178-1cd932e30d02))
  )

  (symbol (lib_id "Device:R") (at 87.63 182.88 90) (unit 1)
    (in_bom yes) (on_board yes) (fields_autoplaced)
    (uuid 7c23b417-aac9-49aa-ae7a-3b812d3daa86)
    (property "Reference" "R28" (id 0) (at 87.63 176.53 90))
    (property "Value" "R" (id 1) (at 87.63 179.07 90))
    (property "Footprint" "Resistor_THT:R_Axial_DIN0207_L6.3mm_D2.5mm_P10.16mm_Horizontal" (id 2) (at 87.63 184.658 90)
      (effects (font (size 1.27 1.27)) hide)
    )
    (property "Datasheet" "~" (id 3) (at 87.63 182.88 0)
      (effects (font (size 1.27 1.27)) hide)
    )
    (pin "1" (uuid 3528e6e9-c36f-4353-b840-c6b8c0deb63a))
    (pin "2" (uuid a3290ee8-f56f-4f88-ab1c-341f99ad05aa))
  )

  (symbol (lib_id "stopky:Dekoder") (at 73.66 123.19 0) (unit 1)
    (in_bom yes) (on_board yes) (fields_autoplaced)
    (uuid 7e7e013b-b8b0-4782-9d44-f79cdb7487d7)
    (property "Reference" "U3" (id 0) (at 67.945 106.68 0))
    (property "Value" "Dekoder" (id 1) (at 67.945 109.22 0))
    (property "Footprint" "Package_DIP:DIP-16_W7.62mm" (id 2) (at 73.66 123.19 0)
      (effects (font (size 1.27 1.27)) hide)
    )
    (property "Datasheet" "" (id 3) (at 73.66 123.19 0)
      (effects (font (size 1.27 1.27)) hide)
    )
    (pin "1" (uuid 029ca2e7-b5f6-4a48-9575-5f61a7eae954))
    (pin "10" (uuid 7f0026a6-7b31-4499-9ed4-f947f8069347))
    (pin "11" (uuid f7efc64f-3224-4210-ad5c-94fbe91efccf))
    (pin "12" (uuid 0cf398d2-1aca-485d-a931-3f95dc153804))
    (pin "13" (uuid 5718bf90-8fdd-42f6-a4c8-f27dc52c942b))
    (pin "14" (uuid c5ec4d60-4a19-4051-b904-33c08707c1c3))
    (pin "15" (uuid c38a5010-5db2-413f-b25e-69dd4de38ab4))
    (pin "16" (uuid 9a8302cc-234b-4d34-9f5a-0c50c6c18f6b))
    (pin "2" (uuid 71b3006e-c476-43ba-b568-5832d68a79c1))
    (pin "3" (uuid 3d2770b6-c9f7-4b82-b922-d071570a4b52))
    (pin "4" (uuid 89076f2d-727e-4944-8479-bcb076c80e6b))
    (pin "5" (uuid 93c038f6-feeb-4b0f-894c-2aabea6a2c05))
    (pin "6" (uuid 142cf765-3687-432c-b127-de5343ef6578))
    (pin "7" (uuid 77c69bc9-01ef-4a3c-8bb4-b59aeb078632))
    (pin "8" (uuid 860d7bc3-5775-4169-a244-5802a2070af9))
    (pin "9" (uuid 425969aa-c871-4f79-a32f-6e0fce46e03e))
  )

  (symbol (lib_id "Device:R") (at 87.63 133.35 90) (unit 1)
    (in_bom yes) (on_board yes) (fields_autoplaced)
    (uuid 87ff0907-ea85-4601-8dd7-8fe4dc237a1f)
    (property "Reference" "R19" (id 0) (at 87.63 127 90))
    (property "Value" "R" (id 1) (at 87.63 129.54 90))
    (property "Footprint" "Resistor_THT:R_Axial_DIN0207_L6.3mm_D2.5mm_P10.16mm_Horizontal" (id 2) (at 87.63 135.128 90)
      (effects (font (size 1.27 1.27)) hide)
    )
    (property "Datasheet" "~" (id 3) (at 87.63 133.35 0)
      (effects (font (size 1.27 1.27)) hide)
    )
    (pin "1" (uuid ce7f5328-10da-429c-b389-b90c3e3cef2a))
    (pin "2" (uuid e55b5ec0-a949-43f8-a385-83ebcd268729))
  )

  (symbol (lib_id "Device:R") (at 87.63 137.16 90) (unit 1)
    (in_bom yes) (on_board yes) (fields_autoplaced)
    (uuid 8b63fcc5-0402-453d-b9a9-13deeaeeabde)
    (property "Reference" "R20" (id 0) (at 87.63 130.81 90))
    (property "Value" "R" (id 1) (at 87.63 133.35 90))
    (property "Footprint" "Resistor_THT:R_Axial_DIN0207_L6.3mm_D2.5mm_P10.16mm_Horizontal" (id 2) (at 87.63 138.938 90)
      (effects (font (size 1.27 1.27)) hide)
    )
    (property "Datasheet" "~" (id 3) (at 87.63 137.16 0)
      (effects (font (size 1.27 1.27)) hide)
    )
    (pin "1" (uuid a916d060-448e-44ee-9ec7-99d117c37224))
    (pin "2" (uuid 51ecda2b-7aa8-4e8c-94f2-730898596006))
  )

  (symbol (lib_id "stopky:Dekoder") (at 73.66 48.26 0) (unit 1)
    (in_bom yes) (on_board yes) (fields_autoplaced)
    (uuid 8f9694e8-6292-489f-9d62-480d67d67c96)
    (property "Reference" "U1" (id 0) (at 67.945 31.75 0))
    (property "Value" "Dekoder" (id 1) (at 67.945 34.29 0))
    (property "Footprint" "Package_DIP:DIP-16_W7.62mm" (id 2) (at 73.66 48.26 0)
      (effects (font (size 1.27 1.27)) hide)
    )
    (property "Datasheet" "" (id 3) (at 73.66 48.26 0)
      (effects (font (size 1.27 1.27)) hide)
    )
    (pin "1" (uuid 63e9ab7c-a120-49fb-b492-489db55f8e4b))
    (pin "10" (uuid 40e9c64d-f228-49aa-9b6c-b076b2ce33a0))
    (pin "11" (uuid 5c0d657c-a861-464f-b0bc-4825d8409aeb))
    (pin "12" (uuid f0b5d420-62d4-47dd-b411-bf11adeccb5d))
    (pin "13" (uuid dfc9d321-2ff7-4857-a101-727cb0416bb0))
    (pin "14" (uuid 9d4bfd9e-990a-4d86-b541-8bd75299d780))
    (pin "15" (uuid aed6d6d3-6002-4c65-9ef5-41f75efd56ba))
    (pin "16" (uuid d6d78c8d-9f08-4f4b-93bd-5644eec4e192))
    (pin "2" (uuid 6a12b44e-ab68-4bcd-a5a0-6f4fcb66ec09))
    (pin "3" (uuid 4331934c-bd45-467a-8f5f-5e1eeefae95f))
    (pin "4" (uuid 86ed88ec-dfeb-4d02-b0f8-15627cbb4282))
    (pin "5" (uuid 4f6643b2-c971-4fa7-9c1b-5b83a5cb095c))
    (pin "6" (uuid d01ab730-b799-4a6f-bd58-48cc52cec0ea))
    (pin "7" (uuid db4325b8-00eb-4516-8384-6633237d22af))
    (pin "8" (uuid b441aac2-7e0b-4d03-b9c5-17d0b5ab1cbf))
    (pin "9" (uuid 29ba3811-2459-4894-9d17-1fe445fe38a9))
  )

  (symbol (lib_id "Device:R") (at 87.63 121.92 90) (unit 1)
    (in_bom yes) (on_board yes) (fields_autoplaced)
    (uuid 985794d2-e07b-4f5a-b893-e55ebd37e28e)
    (property "Reference" "R16" (id 0) (at 87.63 115.57 90))
    (property "Value" "R" (id 1) (at 87.63 118.11 90))
    (property "Footprint" "Resistor_THT:R_Axial_DIN0207_L6.3mm_D2.5mm_P10.16mm_Horizontal" (id 2) (at 87.63 123.698 90)
      (effects (font (size 1.27 1.27)) hide)
    )
    (property "Datasheet" "~" (id 3) (at 87.63 121.92 0)
      (effects (font (size 1.27 1.27)) hide)
    )
    (pin "1" (uuid 7958aa43-ca13-4d72-beaa-ddb6a48986c0))
    (pin "2" (uuid 087c2319-bdb5-4bf3-948b-28400d598dd4))
  )

  (symbol (lib_id "Device:R") (at 87.63 54.61 90) (unit 1)
    (in_bom yes) (on_board yes) (fields_autoplaced)
    (uuid 98b2a33f-2ac3-4e58-acab-fc2c9e5bc597)
    (property "Reference" "R4" (id 0) (at 87.63 48.26 90))
    (property "Value" "R" (id 1) (at 87.63 50.8 90))
    (property "Footprint" "Resistor_THT:R_Axial_DIN0207_L6.3mm_D2.5mm_P10.16mm_Horizontal" (id 2) (at 87.63 56.388 90)
      (effects (font (size 1.27 1.27)) hide)
    )
    (property "Datasheet" "~" (id 3) (at 87.63 54.61 0)
      (effects (font (size 1.27 1.27)) hide)
    )
    (pin "1" (uuid eadb323b-5758-49c6-b5f9-ad7153d1e0e9))
    (pin "2" (uuid 8ffff696-cf22-4b44-950c-55f37bbb3697))
  )

  (symbol (lib_id "Device:R") (at 87.63 160.02 90) (unit 1)
    (in_bom yes) (on_board yes) (fields_autoplaced)
    (uuid 9af7f1b6-342a-4c0a-8486-709e4b6a92ad)
    (property "Reference" "R22" (id 0) (at 87.63 153.67 90))
    (property "Value" "R" (id 1) (at 87.63 156.21 90))
    (property "Footprint" "Resistor_THT:R_Axial_DIN0207_L6.3mm_D2.5mm_P10.16mm_Horizontal" (id 2) (at 87.63 161.798 90)
      (effects (font (size 1.27 1.27)) hide)
    )
    (property "Datasheet" "~" (id 3) (at 87.63 160.02 0)
      (effects (font (size 1.27 1.27)) hide)
    )
    (pin "1" (uuid c1702c25-dfd3-40fb-93aa-bcd2c152c623))
    (pin "2" (uuid 6a39a538-1f50-4b45-a50d-56a8105a068f))
  )

  (symbol (lib_id "Device:R") (at 87.63 96.52 90) (unit 1)
    (in_bom yes) (on_board yes) (fields_autoplaced)
    (uuid 9b88434a-6e5d-48df-a66c-83441feff5d4)
    (property "Reference" "R12" (id 0) (at 87.63 90.17 90))
    (property "Value" "R" (id 1) (at 87.63 92.71 90))
    (property "Footprint" "Resistor_THT:R_Axial_DIN0207_L6.3mm_D2.5mm_P10.16mm_Horizontal" (id 2) (at 87.63 98.298 90)
      (effects (font (size 1.27 1.27)) hide)
    )
    (property "Datasheet" "~" (id 3) (at 87.63 96.52 0)
      (effects (font (size 1.27 1.27)) hide)
    )
    (pin "1" (uuid 9387f0e7-ce17-45fb-85ed-28a14db7ba48))
    (pin "2" (uuid 4f6b4886-0d43-4503-9044-344695bff508))
  )

  (symbol (lib_id "Device:R") (at 87.63 163.83 90) (unit 1)
    (in_bom yes) (on_board yes) (fields_autoplaced)
    (uuid 9f55336b-13fd-4271-8d30-84ff49323652)
    (property "Reference" "R23" (id 0) (at 87.63 157.48 90))
    (property "Value" "R" (id 1) (at 87.63 160.02 90))
    (property "Footprint" "Resistor_THT:R_Axial_DIN0207_L6.3mm_D2.5mm_P10.16mm_Horizontal" (id 2) (at 87.63 165.608 90)
      (effects (font (size 1.27 1.27)) hide)
    )
    (property "Datasheet" "~" (id 3) (at 87.63 163.83 0)
      (effects (font (size 1.27 1.27)) hide)
    )
    (pin "1" (uuid 6ad3184c-f5b0-4eff-b0ec-a628e3719744))
    (pin "2" (uuid 12c149c8-eacc-4870-8117-03ccedbe5078))
  )

  (symbol (lib_id "Device:R") (at 87.63 140.97 90) (unit 1)
    (in_bom yes) (on_board yes) (fields_autoplaced)
    (uuid b77dbd11-d90d-4db0-ad87-fe179d725044)
    (property "Reference" "R21" (id 0) (at 87.63 134.62 90))
    (property "Value" "R" (id 1) (at 87.63 137.16 90))
    (property "Footprint" "Resistor_THT:R_Axial_DIN0207_L6.3mm_D2.5mm_P10.16mm_Horizontal" (id 2) (at 87.63 142.748 90)
      (effects (font (size 1.27 1.27)) hide)
    )
    (property "Datasheet" "~" (id 3) (at 87.63 140.97 0)
      (effects (font (size 1.27 1.27)) hide)
    )
    (pin "1" (uuid 15df1a1b-74cd-45d8-9750-ecc07bc51b09))
    (pin "2" (uuid 5c5ad278-21f9-4cba-9823-8b1a8454f749))
  )

  (symbol (lib_id "Device:R") (at 87.63 167.64 90) (unit 1)
    (in_bom yes) (on_board yes) (fields_autoplaced)
    (uuid b7e7f4a8-3f5a-4650-8595-72e249378b8c)
    (property "Reference" "R24" (id 0) (at 87.63 161.29 90))
    (property "Value" "R" (id 1) (at 87.63 163.83 90))
    (property "Footprint" "Resistor_THT:R_Axial_DIN0207_L6.3mm_D2.5mm_P10.16mm_Horizontal" (id 2) (at 87.63 169.418 90)
      (effects (font (size 1.27 1.27)) hide)
    )
    (property "Datasheet" "~" (id 3) (at 87.63 167.64 0)
      (effects (font (size 1.27 1.27)) hide)
    )
    (pin "1" (uuid 362cafe0-ed01-41d2-82dc-0bd90af85e0a))
    (pin "2" (uuid 9a065c19-d2e4-41fd-9e7b-c06bc6c7ea60))
  )

  (symbol (lib_id "Device:R") (at 87.63 100.33 90) (unit 1)
    (in_bom yes) (on_board yes) (fields_autoplaced)
    (uuid bf25b6c3-f9df-417f-83a8-3577c4cd7e54)
    (property "Reference" "R13" (id 0) (at 87.63 93.98 90))
    (property "Value" "R" (id 1) (at 87.63 96.52 90))
    (property "Footprint" "Resistor_THT:R_Axial_DIN0207_L6.3mm_D2.5mm_P10.16mm_Horizontal" (id 2) (at 87.63 102.108 90)
      (effects (font (size 1.27 1.27)) hide)
    )
    (property "Datasheet" "~" (id 3) (at 87.63 100.33 0)
      (effects (font (size 1.27 1.27)) hide)
    )
    (pin "1" (uuid 3f1f9f99-ac51-4a74-b2cf-476754f25308))
    (pin "2" (uuid f963085f-0d80-458f-92f8-ec66d88209c5))
  )

  (symbol (lib_id "Switch:SW_Push_Dual") (at 133.35 27.94 0) (unit 1)
    (in_bom yes) (on_board yes) (fields_autoplaced)
    (uuid d0cc2ba0-ec90-4ec1-af0e-fcdbd6eed891)
    (property "Reference" "SW?" (id 0) (at 133.35 20.32 0))
    (property "Value" "SW_Push_Dual" (id 1) (at 133.35 22.86 0))
    (property "Footprint" "" (id 2) (at 133.35 22.86 0)
      (effects (font (size 1.27 1.27)) hide)
    )
    (property "Datasheet" "~" (id 3) (at 133.35 22.86 0)
      (effects (font (size 1.27 1.27)) hide)
    )
    (pin "1" (uuid b4e27001-bb4a-4360-96c5-f570527d0701))
    (pin "2" (uuid a835fd3a-044f-47e2-b292-6c1630667dc1))
    (pin "3" (uuid 77b99211-85fd-49d7-99a0-c6485396da1c))
    (pin "4" (uuid 60d648cc-baee-4bb6-8bd0-8057f02f620e))
  )

  (symbol (lib_id "Device:R") (at 87.63 129.54 90) (unit 1)
    (in_bom yes) (on_board yes) (fields_autoplaced)
    (uuid db5c75cd-347a-4a32-b5d2-2c19c03b7605)
    (property "Reference" "R18" (id 0) (at 87.63 123.19 90))
    (property "Value" "R" (id 1) (at 87.63 125.73 90))
    (property "Footprint" "Resistor_THT:R_Axial_DIN0207_L6.3mm_D2.5mm_P10.16mm_Horizontal" (id 2) (at 87.63 131.318 90)
      (effects (font (size 1.27 1.27)) hide)
    )
    (property "Datasheet" "~" (id 3) (at 87.63 129.54 0)
      (effects (font (size 1.27 1.27)) hide)
    )
    (pin "1" (uuid d31a834f-6d5e-4a95-8fa5-765aaa39cacd))
    (pin "2" (uuid 4074757b-319e-4f8d-b9fa-e422a08ca260))
  )

  (symbol (lib_id "Device:R") (at 87.63 66.04 90) (unit 1)
    (in_bom yes) (on_board yes) (fields_autoplaced)
    (uuid e303b566-cdd7-427c-9080-cb92acfbeb17)
    (property "Reference" "R7" (id 0) (at 87.63 59.69 90))
    (property "Value" "R" (id 1) (at 87.63 62.23 90))
    (property "Footprint" "Resistor_THT:R_Axial_DIN0207_L6.3mm_D2.5mm_P10.16mm_Horizontal" (id 2) (at 87.63 67.818 90)
      (effects (font (size 1.27 1.27)) hide)
    )
    (property "Datasheet" "~" (id 3) (at 87.63 66.04 0)
      (effects (font (size 1.27 1.27)) hide)
    )
    (pin "1" (uuid f9670985-27fa-4a29-9bd5-e6cf9f220fd8))
    (pin "2" (uuid a6c22ed8-2b06-406e-bf45-6b51aeca4cc9))
  )

  (symbol (lib_id "Device:R") (at 87.63 46.99 90) (unit 1)
    (in_bom yes) (on_board yes) (fields_autoplaced)
    (uuid eaf7d79e-293d-457e-be72-80b3c3919e7d)
    (property "Reference" "R2" (id 0) (at 87.63 40.64 90))
    (property "Value" "R" (id 1) (at 87.63 43.18 90))
    (property "Footprint" "Resistor_THT:R_Axial_DIN0207_L6.3mm_D2.5mm_P10.16mm_Horizontal" (id 2) (at 87.63 48.768 90)
      (effects (font (size 1.27 1.27)) hide)
    )
    (property "Datasheet" "~" (id 3) (at 87.63 46.99 0)
      (effects (font (size 1.27 1.27)) hide)
    )
    (pin "1" (uuid a4e0d471-9ee3-40d9-8fc1-276c06d12275))
    (pin "2" (uuid e4378640-8df8-4650-bc05-4c3fccaa9c1f))
  )

  (symbol (lib_id "Device:R") (at 87.63 171.45 90) (unit 1)
    (in_bom yes) (on_board yes) (fields_autoplaced)
    (uuid ed0d03b7-6849-42bc-8817-aa8d1b0637e6)
    (property "Reference" "R25" (id 0) (at 87.63 165.1 90))
    (property "Value" "R" (id 1) (at 87.63 167.64 90))
    (property "Footprint" "Resistor_THT:R_Axial_DIN0207_L6.3mm_D2.5mm_P10.16mm_Horizontal" (id 2) (at 87.63 173.228 90)
      (effects (font (size 1.27 1.27)) hide)
    )
    (property "Datasheet" "~" (id 3) (at 87.63 171.45 0)
      (effects (font (size 1.27 1.27)) hide)
    )
    (pin "1" (uuid 1c82330e-8e25-4f57-bfa9-288404e7ac8e))
    (pin "2" (uuid dcbf13f0-b7a9-4c11-acfa-f1a6551168a7))
  )

  (symbol (lib_id "Device:R") (at 87.63 118.11 90) (unit 1)
    (in_bom yes) (on_board yes) (fields_autoplaced)
    (uuid f3053f3f-f1ac-4a5d-a3a8-e7caab45be21)
    (property "Reference" "R15" (id 0) (at 87.63 111.76 90))
    (property "Value" "R" (id 1) (at 87.63 114.3 90))
    (property "Footprint" "Resistor_THT:R_Axial_DIN0207_L6.3mm_D2.5mm_P10.16mm_Horizontal" (id 2) (at 87.63 119.888 90)
      (effects (font (size 1.27 1.27)) hide)
    )
    (property "Datasheet" "~" (id 3) (at 87.63 118.11 0)
      (effects (font (size 1.27 1.27)) hide)
    )
    (pin "1" (uuid 29655ace-94ca-4b1f-8a9f-c12763614624))
    (pin "2" (uuid bb483b8a-d0b3-4ec9-81d3-4cceab1383eb))
  )

  (sheet_instances
    (path "/" (page "1"))
  )

  (symbol_instances
    (path "/19a7dc8f-95c1-4aed-b807-27027ace376b"
      (reference "J1") (unit 1) (value "C5") (footprint "Connector_PinSocket_2.54mm:PinSocket_1x01_P2.54mm_Vertical")
    )
    (path "/73d8c72e-5d68-425e-b708-da9c1a3ffc64"
      (reference "J2") (unit 1) (value "GND") (footprint "Connector_PinSocket_2.54mm:PinSocket_1x01_P2.54mm_Vertical")
    )
    (path "/11f2ca96-22ff-4e11-809a-9f69e8628acf"
      (reference "J3") (unit 1) (value "UCC") (footprint "Connector_PinSocket_2.54mm:PinSocket_1x01_P2.54mm_Vertical")
    )
    (path "/2b6d8fa3-5dee-4df6-93c8-e99a27d19ef4"
      (reference "J4") (unit 1) (value "Conn_01x04_Male") (footprint "Connector_PinSocket_2.54mm:PinSocket_1x04_P2.54mm_Vertical")
    )
    (path "/3a118c26-682c-4f16-91de-6243d94f61cb"
      (reference "J5") (unit 1) (value "Conn_01x04_Male") (footprint "Connector_PinSocket_2.54mm:PinSocket_1x04_P2.54mm_Vertical")
    )
    (path "/292bfb5b-001c-4fab-ab59-2b2dbddb400e"
      (reference "J6") (unit 1) (value "Conn_01x04_Male") (footprint "Connector_PinSocket_2.54mm:PinSocket_1x04_P2.54mm_Vertical")
    )
    (path "/73cac702-8a4d-46d3-a717-3f14de43514f"
      (reference "J7") (unit 1) (value "Conn_01x04_Male") (footprint "Connector_PinSocket_2.54mm:PinSocket_1x04_P2.54mm_Vertical")
    )
    (path "/4126d392-495e-4ef5-9351-6f700c8637bc"
      (reference "R1") (unit 1) (value "R") (footprint "Resistor_THT:R_Axial_DIN0207_L6.3mm_D2.5mm_P10.16mm_Horizontal")
    )
    (path "/eaf7d79e-293d-457e-be72-80b3c3919e7d"
      (reference "R2") (unit 1) (value "R") (footprint "Resistor_THT:R_Axial_DIN0207_L6.3mm_D2.5mm_P10.16mm_Horizontal")
    )
    (path "/3923a0cc-c542-4277-8d78-4c0deea29a4c"
      (reference "R3") (unit 1) (value "R") (footprint "Resistor_THT:R_Axial_DIN0207_L6.3mm_D2.5mm_P10.16mm_Horizontal")
    )
    (path "/98b2a33f-2ac3-4e58-acab-fc2c9e5bc597"
      (reference "R4") (unit 1) (value "R") (footprint "Resistor_THT:R_Axial_DIN0207_L6.3mm_D2.5mm_P10.16mm_Horizontal")
    )
    (path "/497590c0-d6c6-4feb-ad9c-00093a0bf36b"
      (reference "R5") (unit 1) (value "R") (footprint "Resistor_THT:R_Axial_DIN0207_L6.3mm_D2.5mm_P10.16mm_Horizontal")
    )
    (path "/2ed47819-d200-4716-8cd5-ba1e14c8bdf1"
      (reference "R6") (unit 1) (value "R") (footprint "Resistor_THT:R_Axial_DIN0207_L6.3mm_D2.5mm_P10.16mm_Horizontal")
    )
    (path "/e303b566-cdd7-427c-9080-cb92acfbeb17"
      (reference "R7") (unit 1) (value "R") (footprint "Resistor_THT:R_Axial_DIN0207_L6.3mm_D2.5mm_P10.16mm_Horizontal")
    )
    (path "/4b20cab3-2a4e-47de-b256-a223c5a957e2"
      (reference "R8") (unit 1) (value "R") (footprint "Resistor_THT:R_Axial_DIN0207_L6.3mm_D2.5mm_P10.16mm_Horizontal")
    )
    (path "/611aa2e9-17c9-4a50-ae6a-be7ac494c98e"
      (reference "R9") (unit 1) (value "R") (footprint "Resistor_THT:R_Axial_DIN0207_L6.3mm_D2.5mm_P10.16mm_Horizontal")
    )
    (path "/14935df1-9233-40d2-ae31-1c153959189e"
      (reference "R10") (unit 1) (value "R") (footprint "Resistor_THT:R_Axial_DIN0207_L6.3mm_D2.5mm_P10.16mm_Horizontal")
    )
    (path "/32f811e5-0745-4fd2-afc5-75aa9cfcaca4"
      (reference "R11") (unit 1) (value "R") (footprint "Resistor_THT:R_Axial_DIN0207_L6.3mm_D2.5mm_P10.16mm_Horizontal")
    )
    (path "/9b88434a-6e5d-48df-a66c-83441feff5d4"
      (reference "R12") (unit 1) (value "R") (footprint "Resistor_THT:R_Axial_DIN0207_L6.3mm_D2.5mm_P10.16mm_Horizontal")
    )
    (path "/bf25b6c3-f9df-417f-83a8-3577c4cd7e54"
      (reference "R13") (unit 1) (value "R") (footprint "Resistor_THT:R_Axial_DIN0207_L6.3mm_D2.5mm_P10.16mm_Horizontal")
    )
    (path "/33899aea-6b40-4754-8ca7-38705f34c15b"
      (reference "R14") (unit 1) (value "R") (footprint "Resistor_THT:R_Axial_DIN0207_L6.3mm_D2.5mm_P10.16mm_Horizontal")
    )
    (path "/f3053f3f-f1ac-4a5d-a3a8-e7caab45be21"
      (reference "R15") (unit 1) (value "R") (footprint "Resistor_THT:R_Axial_DIN0207_L6.3mm_D2.5mm_P10.16mm_Horizontal")
    )
    (path "/985794d2-e07b-4f5a-b893-e55ebd37e28e"
      (reference "R16") (unit 1) (value "R") (footprint "Resistor_THT:R_Axial_DIN0207_L6.3mm_D2.5mm_P10.16mm_Horizontal")
    )
    (path "/43f46fc5-f2d7-4793-a048-938718fe0d2c"
      (reference "R17") (unit 1) (value "R") (footprint "Resistor_THT:R_Axial_DIN0207_L6.3mm_D2.5mm_P10.16mm_Horizontal")
    )
    (path "/db5c75cd-347a-4a32-b5d2-2c19c03b7605"
      (reference "R18") (unit 1) (value "R") (footprint "Resistor_THT:R_Axial_DIN0207_L6.3mm_D2.5mm_P10.16mm_Horizontal")
    )
    (path "/87ff0907-ea85-4601-8dd7-8fe4dc237a1f"
      (reference "R19") (unit 1) (value "R") (footprint "Resistor_THT:R_Axial_DIN0207_L6.3mm_D2.5mm_P10.16mm_Horizontal")
    )
    (path "/8b63fcc5-0402-453d-b9a9-13deeaeeabde"
      (reference "R20") (unit 1) (value "R") (footprint "Resistor_THT:R_Axial_DIN0207_L6.3mm_D2.5mm_P10.16mm_Horizontal")
    )
    (path "/b77dbd11-d90d-4db0-ad87-fe179d725044"
      (reference "R21") (unit 1) (value "R") (footprint "Resistor_THT:R_Axial_DIN0207_L6.3mm_D2.5mm_P10.16mm_Horizontal")
    )
    (path "/9af7f1b6-342a-4c0a-8486-709e4b6a92ad"
      (reference "R22") (unit 1) (value "R") (footprint "Resistor_THT:R_Axial_DIN0207_L6.3mm_D2.5mm_P10.16mm_Horizontal")
    )
    (path "/9f55336b-13fd-4271-8d30-84ff49323652"
      (reference "R23") (unit 1) (value "R") (footprint "Resistor_THT:R_Axial_DIN0207_L6.3mm_D2.5mm_P10.16mm_Horizontal")
    )
    (path "/b7e7f4a8-3f5a-4650-8595-72e249378b8c"
      (reference "R24") (unit 1) (value "R") (footprint "Resistor_THT:R_Axial_DIN0207_L6.3mm_D2.5mm_P10.16mm_Horizontal")
    )
    (path "/ed0d03b7-6849-42bc-8817-aa8d1b0637e6"
      (reference "R25") (unit 1) (value "R") (footprint "Resistor_THT:R_Axial_DIN0207_L6.3mm_D2.5mm_P10.16mm_Horizontal")
    )
    (path "/34113fd5-daf1-4190-bf24-d5354b52c41b"
      (reference "R26") (unit 1) (value "R") (footprint "Resistor_THT:R_Axial_DIN0207_L6.3mm_D2.5mm_P10.16mm_Horizontal")
    )
    (path "/3ff36b83-ba0a-417f-a636-7e280b251131"
      (reference "R27") (unit 1) (value "R") (footprint "Resistor_THT:R_Axial_DIN0207_L6.3mm_D2.5mm_P10.16mm_Horizontal")
    )
    (path "/7c23b417-aac9-49aa-ae7a-3b812d3daa86"
      (reference "R28") (unit 1) (value "R") (footprint "Resistor_THT:R_Axial_DIN0207_L6.3mm_D2.5mm_P10.16mm_Horizontal")
    )
    (path "/33e4793f-e68e-4418-9255-83644e47fe6b"
      (reference "SEG1") (unit 1) (value "SEGMENT") (footprint "Display_7Segment:7SegmentLED_LTS6760_LTS6780")
    )
    (path "/6e5579a3-5e09-479f-bcf8-1db8c69bbfbe"
      (reference "SEG2") (unit 1) (value "SEGMENT") (footprint "Display_7Segment:7SegmentLED_LTS6760_LTS6780")
    )
    (path "/5b5468a6-8eb1-4edf-adb5-e1e619b15489"
      (reference "SEG3") (unit 1) (value "SEGMENT") (footprint "Display_7Segment:7SegmentLED_LTS6760_LTS6780")
    )
    (path "/0c1ded24-3b05-4468-b5b8-b367b7f0c374"
      (reference "SEG4") (unit 1) (value "SEGMENT") (footprint "Display_7Segment:7SegmentLED_LTS6760_LTS6780")
    )
    (path "/d0cc2ba0-ec90-4ec1-af0e-fcdbd6eed891"
      (reference "SW?") (unit 1) (value "SW_Push_Dual") (footprint "")
    )
    (path "/8f9694e8-6292-489f-9d62-480d67d67c96"
      (reference "U1") (unit 1) (value "Dekoder") (footprint "Package_DIP:DIP-16_W7.62mm")
    )
    (path "/00cb7c8b-75dd-4a4b-84cc-74b92dbcc0b0"
      (reference "U2") (unit 1) (value "Dekoder") (footprint "Package_DIP:DIP-16_W7.62mm")
    )
    (path "/7e7e013b-b8b0-4782-9d44-f79cdb7487d7"
      (reference "U3") (unit 1) (value "Dekoder") (footprint "Package_DIP:DIP-16_W7.62mm")
    )
    (path "/6e2d9142-8cee-41fa-95fc-6c92ddaa441e"
      (reference "U4") (unit 1) (value "Dekoder") (footprint "Package_DIP:DIP-16_W7.62mm")
    )
  )
)
